ARM GAS  C:\Users\dmarsch\AppData\Local\Temp\ccviHmsi.s 			page 1


   1              		.syntax unified
   2              		.cpu cortex-m3
   3              		.fpu softvfp
   4              		.eabi_attribute 20, 1
   5              		.eabi_attribute 21, 1
   6              		.eabi_attribute 23, 3
   7              		.eabi_attribute 24, 1
   8              		.eabi_attribute 25, 1
   9              		.eabi_attribute 26, 1
  10              		.eabi_attribute 30, 1
  11              		.eabi_attribute 34, 1
  12              		.eabi_attribute 18, 4
  13              		.thumb
  14              		.syntax unified
  15              		.file	"CLR_STR_ISR.c"
  16              		.text
  17              	.Ltext0:
  18              		.cfi_sections	.debug_frame
  19              		.section	.text.CLR_STR_ISR_Interrupt,"ax",%progbits
  20              		.align	2
  21              		.global	CLR_STR_ISR_Interrupt
  22              		.thumb
  23              		.thumb_func
  24              		.type	CLR_STR_ISR_Interrupt, %function
  25              	CLR_STR_ISR_Interrupt:
  26              	.LFB3:
  27              		.file 1 "Generated_Source\\PSoC5\\CLR_STR_ISR.c"
   1:Generated_Source\PSoC5/CLR_STR_ISR.c **** /*******************************************************************************
   2:Generated_Source\PSoC5/CLR_STR_ISR.c **** * File Name: CLR_STR_ISR.c  
   3:Generated_Source\PSoC5/CLR_STR_ISR.c **** * Version 1.70
   4:Generated_Source\PSoC5/CLR_STR_ISR.c **** *
   5:Generated_Source\PSoC5/CLR_STR_ISR.c **** *  Description:
   6:Generated_Source\PSoC5/CLR_STR_ISR.c **** *   API for controlling the state of an interrupt.
   7:Generated_Source\PSoC5/CLR_STR_ISR.c **** *
   8:Generated_Source\PSoC5/CLR_STR_ISR.c **** *
   9:Generated_Source\PSoC5/CLR_STR_ISR.c **** *  Note:
  10:Generated_Source\PSoC5/CLR_STR_ISR.c **** *
  11:Generated_Source\PSoC5/CLR_STR_ISR.c **** ********************************************************************************
  12:Generated_Source\PSoC5/CLR_STR_ISR.c **** * Copyright 2008-2015, Cypress Semiconductor Corporation.  All rights reserved.
  13:Generated_Source\PSoC5/CLR_STR_ISR.c **** * You may use this file only in accordance with the license, terms, conditions, 
  14:Generated_Source\PSoC5/CLR_STR_ISR.c **** * disclaimers, and limitations in the end user license agreement accompanying 
  15:Generated_Source\PSoC5/CLR_STR_ISR.c **** * the software package with which this file was provided.
  16:Generated_Source\PSoC5/CLR_STR_ISR.c **** *******************************************************************************/
  17:Generated_Source\PSoC5/CLR_STR_ISR.c **** 
  18:Generated_Source\PSoC5/CLR_STR_ISR.c **** 
  19:Generated_Source\PSoC5/CLR_STR_ISR.c **** #include <cydevice_trm.h>
  20:Generated_Source\PSoC5/CLR_STR_ISR.c **** #include <CyLib.h>
  21:Generated_Source\PSoC5/CLR_STR_ISR.c **** #include <CLR_STR_ISR.h>
  22:Generated_Source\PSoC5/CLR_STR_ISR.c **** #include "cyapicallbacks.h"
  23:Generated_Source\PSoC5/CLR_STR_ISR.c **** 
  24:Generated_Source\PSoC5/CLR_STR_ISR.c **** #if !defined(CLR_STR_ISR__REMOVED) /* Check for removal by optimization */
  25:Generated_Source\PSoC5/CLR_STR_ISR.c **** 
  26:Generated_Source\PSoC5/CLR_STR_ISR.c **** /*******************************************************************************
  27:Generated_Source\PSoC5/CLR_STR_ISR.c **** *  Place your includes, defines and code here 
  28:Generated_Source\PSoC5/CLR_STR_ISR.c **** ********************************************************************************/
  29:Generated_Source\PSoC5/CLR_STR_ISR.c **** /* `#START CLR_STR_ISR_intc` */
  30:Generated_Source\PSoC5/CLR_STR_ISR.c **** #include "SW1.h"
ARM GAS  C:\Users\dmarsch\AppData\Local\Temp\ccviHmsi.s 			page 2


  31:Generated_Source\PSoC5/CLR_STR_ISR.c **** #include "CLR_STR_ISR.h"
  32:Generated_Source\PSoC5/CLR_STR_ISR.c **** volatile int flag;
  33:Generated_Source\PSoC5/CLR_STR_ISR.c **** volatile int value;
  34:Generated_Source\PSoC5/CLR_STR_ISR.c **** /* `#END` */
  35:Generated_Source\PSoC5/CLR_STR_ISR.c **** 
  36:Generated_Source\PSoC5/CLR_STR_ISR.c **** #ifndef CYINT_IRQ_BASE
  37:Generated_Source\PSoC5/CLR_STR_ISR.c **** #define CYINT_IRQ_BASE      16
  38:Generated_Source\PSoC5/CLR_STR_ISR.c **** #endif /* CYINT_IRQ_BASE */
  39:Generated_Source\PSoC5/CLR_STR_ISR.c **** #ifndef CYINT_VECT_TABLE
  40:Generated_Source\PSoC5/CLR_STR_ISR.c **** #define CYINT_VECT_TABLE    ((cyisraddress **) CYREG_NVIC_VECT_OFFSET)
  41:Generated_Source\PSoC5/CLR_STR_ISR.c **** #endif /* CYINT_VECT_TABLE */
  42:Generated_Source\PSoC5/CLR_STR_ISR.c **** 
  43:Generated_Source\PSoC5/CLR_STR_ISR.c **** /* Declared in startup, used to set unused interrupts to. */
  44:Generated_Source\PSoC5/CLR_STR_ISR.c **** CY_ISR_PROTO(IntDefaultHandler);
  45:Generated_Source\PSoC5/CLR_STR_ISR.c **** 
  46:Generated_Source\PSoC5/CLR_STR_ISR.c **** 
  47:Generated_Source\PSoC5/CLR_STR_ISR.c **** /*******************************************************************************
  48:Generated_Source\PSoC5/CLR_STR_ISR.c **** * Function Name: CLR_STR_ISR_Start
  49:Generated_Source\PSoC5/CLR_STR_ISR.c **** ********************************************************************************
  50:Generated_Source\PSoC5/CLR_STR_ISR.c **** *
  51:Generated_Source\PSoC5/CLR_STR_ISR.c **** * Summary:
  52:Generated_Source\PSoC5/CLR_STR_ISR.c **** *  Set up the interrupt and enable it. This function disables the interrupt, 
  53:Generated_Source\PSoC5/CLR_STR_ISR.c **** *  sets the default interrupt vector, sets the priority from the value in the
  54:Generated_Source\PSoC5/CLR_STR_ISR.c **** *  Design Wide Resources Interrupt Editor, then enables the interrupt to the 
  55:Generated_Source\PSoC5/CLR_STR_ISR.c **** *  interrupt controller.
  56:Generated_Source\PSoC5/CLR_STR_ISR.c **** *
  57:Generated_Source\PSoC5/CLR_STR_ISR.c **** * Parameters:  
  58:Generated_Source\PSoC5/CLR_STR_ISR.c **** *   None
  59:Generated_Source\PSoC5/CLR_STR_ISR.c **** *
  60:Generated_Source\PSoC5/CLR_STR_ISR.c **** * Return:
  61:Generated_Source\PSoC5/CLR_STR_ISR.c **** *   None
  62:Generated_Source\PSoC5/CLR_STR_ISR.c **** *
  63:Generated_Source\PSoC5/CLR_STR_ISR.c **** *******************************************************************************/
  64:Generated_Source\PSoC5/CLR_STR_ISR.c **** void CLR_STR_ISR_Start(void)
  65:Generated_Source\PSoC5/CLR_STR_ISR.c **** {
  66:Generated_Source\PSoC5/CLR_STR_ISR.c ****     /* For all we know the interrupt is active. */
  67:Generated_Source\PSoC5/CLR_STR_ISR.c ****     CLR_STR_ISR_Disable();
  68:Generated_Source\PSoC5/CLR_STR_ISR.c **** 
  69:Generated_Source\PSoC5/CLR_STR_ISR.c ****     /* Set the ISR to point to the CLR_STR_ISR Interrupt. */
  70:Generated_Source\PSoC5/CLR_STR_ISR.c ****     CLR_STR_ISR_SetVector(&CLR_STR_ISR_Interrupt);
  71:Generated_Source\PSoC5/CLR_STR_ISR.c **** 
  72:Generated_Source\PSoC5/CLR_STR_ISR.c ****     /* Set the priority. */
  73:Generated_Source\PSoC5/CLR_STR_ISR.c ****     CLR_STR_ISR_SetPriority((uint8)CLR_STR_ISR_INTC_PRIOR_NUMBER);
  74:Generated_Source\PSoC5/CLR_STR_ISR.c **** 
  75:Generated_Source\PSoC5/CLR_STR_ISR.c ****     /* Enable it. */
  76:Generated_Source\PSoC5/CLR_STR_ISR.c ****     CLR_STR_ISR_Enable();
  77:Generated_Source\PSoC5/CLR_STR_ISR.c **** }
  78:Generated_Source\PSoC5/CLR_STR_ISR.c **** 
  79:Generated_Source\PSoC5/CLR_STR_ISR.c **** 
  80:Generated_Source\PSoC5/CLR_STR_ISR.c **** /*******************************************************************************
  81:Generated_Source\PSoC5/CLR_STR_ISR.c **** * Function Name: CLR_STR_ISR_StartEx
  82:Generated_Source\PSoC5/CLR_STR_ISR.c **** ********************************************************************************
  83:Generated_Source\PSoC5/CLR_STR_ISR.c **** *
  84:Generated_Source\PSoC5/CLR_STR_ISR.c **** * Summary:
  85:Generated_Source\PSoC5/CLR_STR_ISR.c **** *  Sets up the interrupt and enables it. This function disables the interrupt,
  86:Generated_Source\PSoC5/CLR_STR_ISR.c **** *  sets the interrupt vector based on the address passed in, sets the priority 
  87:Generated_Source\PSoC5/CLR_STR_ISR.c **** *  from the value in the Design Wide Resources Interrupt Editor, then enables 
ARM GAS  C:\Users\dmarsch\AppData\Local\Temp\ccviHmsi.s 			page 3


  88:Generated_Source\PSoC5/CLR_STR_ISR.c **** *  the interrupt to the interrupt controller.
  89:Generated_Source\PSoC5/CLR_STR_ISR.c **** *  
  90:Generated_Source\PSoC5/CLR_STR_ISR.c **** *  When defining ISR functions, the CY_ISR and CY_ISR_PROTO macros should be 
  91:Generated_Source\PSoC5/CLR_STR_ISR.c **** *  used to provide consistent definition across compilers:
  92:Generated_Source\PSoC5/CLR_STR_ISR.c **** *  
  93:Generated_Source\PSoC5/CLR_STR_ISR.c **** *  Function definition example:
  94:Generated_Source\PSoC5/CLR_STR_ISR.c **** *   CY_ISR(MyISR)
  95:Generated_Source\PSoC5/CLR_STR_ISR.c **** *   {
  96:Generated_Source\PSoC5/CLR_STR_ISR.c **** *   }
  97:Generated_Source\PSoC5/CLR_STR_ISR.c **** *   Function prototype example:
  98:Generated_Source\PSoC5/CLR_STR_ISR.c **** *   CY_ISR_PROTO(MyISR);
  99:Generated_Source\PSoC5/CLR_STR_ISR.c **** *
 100:Generated_Source\PSoC5/CLR_STR_ISR.c **** * Parameters:  
 101:Generated_Source\PSoC5/CLR_STR_ISR.c **** *   address: Address of the ISR to set in the interrupt vector table.
 102:Generated_Source\PSoC5/CLR_STR_ISR.c **** *
 103:Generated_Source\PSoC5/CLR_STR_ISR.c **** * Return:
 104:Generated_Source\PSoC5/CLR_STR_ISR.c **** *   None
 105:Generated_Source\PSoC5/CLR_STR_ISR.c **** *
 106:Generated_Source\PSoC5/CLR_STR_ISR.c **** *******************************************************************************/
 107:Generated_Source\PSoC5/CLR_STR_ISR.c **** void CLR_STR_ISR_StartEx(cyisraddress address)
 108:Generated_Source\PSoC5/CLR_STR_ISR.c **** {
 109:Generated_Source\PSoC5/CLR_STR_ISR.c ****     /* For all we know the interrupt is active. */
 110:Generated_Source\PSoC5/CLR_STR_ISR.c ****     CLR_STR_ISR_Disable();
 111:Generated_Source\PSoC5/CLR_STR_ISR.c **** 
 112:Generated_Source\PSoC5/CLR_STR_ISR.c ****     /* Set the ISR to point to the CLR_STR_ISR Interrupt. */
 113:Generated_Source\PSoC5/CLR_STR_ISR.c ****     CLR_STR_ISR_SetVector(address);
 114:Generated_Source\PSoC5/CLR_STR_ISR.c **** 
 115:Generated_Source\PSoC5/CLR_STR_ISR.c ****     /* Set the priority. */
 116:Generated_Source\PSoC5/CLR_STR_ISR.c ****     CLR_STR_ISR_SetPriority((uint8)CLR_STR_ISR_INTC_PRIOR_NUMBER);
 117:Generated_Source\PSoC5/CLR_STR_ISR.c **** 
 118:Generated_Source\PSoC5/CLR_STR_ISR.c ****     /* Enable it. */
 119:Generated_Source\PSoC5/CLR_STR_ISR.c ****     CLR_STR_ISR_Enable();
 120:Generated_Source\PSoC5/CLR_STR_ISR.c **** }
 121:Generated_Source\PSoC5/CLR_STR_ISR.c **** 
 122:Generated_Source\PSoC5/CLR_STR_ISR.c **** 
 123:Generated_Source\PSoC5/CLR_STR_ISR.c **** /*******************************************************************************
 124:Generated_Source\PSoC5/CLR_STR_ISR.c **** * Function Name: CLR_STR_ISR_Stop
 125:Generated_Source\PSoC5/CLR_STR_ISR.c **** ********************************************************************************
 126:Generated_Source\PSoC5/CLR_STR_ISR.c **** *
 127:Generated_Source\PSoC5/CLR_STR_ISR.c **** * Summary:
 128:Generated_Source\PSoC5/CLR_STR_ISR.c **** *   Disables and removes the interrupt.
 129:Generated_Source\PSoC5/CLR_STR_ISR.c **** *
 130:Generated_Source\PSoC5/CLR_STR_ISR.c **** * Parameters:  
 131:Generated_Source\PSoC5/CLR_STR_ISR.c **** *   None
 132:Generated_Source\PSoC5/CLR_STR_ISR.c **** *
 133:Generated_Source\PSoC5/CLR_STR_ISR.c **** * Return:
 134:Generated_Source\PSoC5/CLR_STR_ISR.c **** *   None
 135:Generated_Source\PSoC5/CLR_STR_ISR.c **** *
 136:Generated_Source\PSoC5/CLR_STR_ISR.c **** *******************************************************************************/
 137:Generated_Source\PSoC5/CLR_STR_ISR.c **** void CLR_STR_ISR_Stop(void)
 138:Generated_Source\PSoC5/CLR_STR_ISR.c **** {
 139:Generated_Source\PSoC5/CLR_STR_ISR.c ****     /* Disable this interrupt. */
 140:Generated_Source\PSoC5/CLR_STR_ISR.c ****     CLR_STR_ISR_Disable();
 141:Generated_Source\PSoC5/CLR_STR_ISR.c **** 
 142:Generated_Source\PSoC5/CLR_STR_ISR.c ****     /* Set the ISR to point to the passive one. */
 143:Generated_Source\PSoC5/CLR_STR_ISR.c ****     CLR_STR_ISR_SetVector(&IntDefaultHandler);
 144:Generated_Source\PSoC5/CLR_STR_ISR.c **** }
ARM GAS  C:\Users\dmarsch\AppData\Local\Temp\ccviHmsi.s 			page 4


 145:Generated_Source\PSoC5/CLR_STR_ISR.c **** 
 146:Generated_Source\PSoC5/CLR_STR_ISR.c **** 
 147:Generated_Source\PSoC5/CLR_STR_ISR.c **** /*******************************************************************************
 148:Generated_Source\PSoC5/CLR_STR_ISR.c **** * Function Name: CLR_STR_ISR_Interrupt
 149:Generated_Source\PSoC5/CLR_STR_ISR.c **** ********************************************************************************
 150:Generated_Source\PSoC5/CLR_STR_ISR.c **** *
 151:Generated_Source\PSoC5/CLR_STR_ISR.c **** * Summary:
 152:Generated_Source\PSoC5/CLR_STR_ISR.c **** *   The default Interrupt Service Routine for CLR_STR_ISR.
 153:Generated_Source\PSoC5/CLR_STR_ISR.c **** *
 154:Generated_Source\PSoC5/CLR_STR_ISR.c **** *   Add custom code between the coments to keep the next version of this file
 155:Generated_Source\PSoC5/CLR_STR_ISR.c **** *   from over writting your code.
 156:Generated_Source\PSoC5/CLR_STR_ISR.c **** *
 157:Generated_Source\PSoC5/CLR_STR_ISR.c **** * Parameters:  
 158:Generated_Source\PSoC5/CLR_STR_ISR.c **** *
 159:Generated_Source\PSoC5/CLR_STR_ISR.c **** * Return:
 160:Generated_Source\PSoC5/CLR_STR_ISR.c **** *   None
 161:Generated_Source\PSoC5/CLR_STR_ISR.c **** *
 162:Generated_Source\PSoC5/CLR_STR_ISR.c **** *******************************************************************************/
 163:Generated_Source\PSoC5/CLR_STR_ISR.c **** CY_ISR(CLR_STR_ISR_Interrupt)
 164:Generated_Source\PSoC5/CLR_STR_ISR.c **** {
  28              		.loc 1 164 0
  29              		.cfi_startproc
  30              		@ args = 0, pretend = 0, frame = 0
  31              		@ frame_needed = 0, uses_anonymous_args = 0
  32 0000 08B5     		push	{r3, lr}
  33              		.cfi_def_cfa_offset 8
  34              		.cfi_offset 3, -8
  35              		.cfi_offset 14, -4
 165:Generated_Source\PSoC5/CLR_STR_ISR.c ****     #ifdef CLR_STR_ISR_INTERRUPT_INTERRUPT_CALLBACK
 166:Generated_Source\PSoC5/CLR_STR_ISR.c ****         CLR_STR_ISR_Interrupt_InterruptCallback();
 167:Generated_Source\PSoC5/CLR_STR_ISR.c ****     #endif /* CLR_STR_ISR_INTERRUPT_INTERRUPT_CALLBACK */ 
 168:Generated_Source\PSoC5/CLR_STR_ISR.c **** 
 169:Generated_Source\PSoC5/CLR_STR_ISR.c ****     /*  Place your Interrupt code here. */
 170:Generated_Source\PSoC5/CLR_STR_ISR.c ****     /* `#START CLR_STR_ISR_Interrupt` */
 171:Generated_Source\PSoC5/CLR_STR_ISR.c ****     value = SW1_Read();
  36              		.loc 1 171 0
  37 0002 FFF7FEFF 		bl	SW1_Read
  38              	.LVL0:
  39 0006 054B     		ldr	r3, .L4
  40 0008 1860     		str	r0, [r3]
 172:Generated_Source\PSoC5/CLR_STR_ISR.c ****     if (value == 1) flag = 1;
  41              		.loc 1 172 0
  42 000a 1B68     		ldr	r3, [r3]
  43 000c 012B     		cmp	r3, #1
  44 000e 02D1     		bne	.L2
  45              		.loc 1 172 0 is_stmt 0 discriminator 1
  46 0010 0122     		movs	r2, #1
  47 0012 034B     		ldr	r3, .L4+4
  48 0014 1A60     		str	r2, [r3]
  49              	.L2:
 173:Generated_Source\PSoC5/CLR_STR_ISR.c ****     //CLR_STR_ISR_ClearPending();
 174:Generated_Source\PSoC5/CLR_STR_ISR.c ****     SW1_ClearInterrupt();
  50              		.loc 1 174 0 is_stmt 1
  51 0016 FFF7FEFF 		bl	SW1_ClearInterrupt
  52              	.LVL1:
  53 001a 08BD     		pop	{r3, pc}
  54              	.L5:
ARM GAS  C:\Users\dmarsch\AppData\Local\Temp\ccviHmsi.s 			page 5


  55              		.align	2
  56              	.L4:
  57 001c 00000000 		.word	value
  58 0020 00000000 		.word	flag
  59              		.cfi_endproc
  60              	.LFE3:
  61              		.size	CLR_STR_ISR_Interrupt, .-CLR_STR_ISR_Interrupt
  62              		.section	.text.CLR_STR_ISR_SetVector,"ax",%progbits
  63              		.align	2
  64              		.global	CLR_STR_ISR_SetVector
  65              		.thumb
  66              		.thumb_func
  67              		.type	CLR_STR_ISR_SetVector, %function
  68              	CLR_STR_ISR_SetVector:
  69              	.LFB4:
 175:Generated_Source\PSoC5/CLR_STR_ISR.c ****     /* `#END` */
 176:Generated_Source\PSoC5/CLR_STR_ISR.c **** }
 177:Generated_Source\PSoC5/CLR_STR_ISR.c **** 
 178:Generated_Source\PSoC5/CLR_STR_ISR.c **** 
 179:Generated_Source\PSoC5/CLR_STR_ISR.c **** /*******************************************************************************
 180:Generated_Source\PSoC5/CLR_STR_ISR.c **** * Function Name: CLR_STR_ISR_SetVector
 181:Generated_Source\PSoC5/CLR_STR_ISR.c **** ********************************************************************************
 182:Generated_Source\PSoC5/CLR_STR_ISR.c **** *
 183:Generated_Source\PSoC5/CLR_STR_ISR.c **** * Summary:
 184:Generated_Source\PSoC5/CLR_STR_ISR.c **** *   Change the ISR vector for the Interrupt. Note calling CLR_STR_ISR_Start
 185:Generated_Source\PSoC5/CLR_STR_ISR.c **** *   will override any effect this method would have had. To set the vector 
 186:Generated_Source\PSoC5/CLR_STR_ISR.c **** *   before the component has been started use CLR_STR_ISR_StartEx instead.
 187:Generated_Source\PSoC5/CLR_STR_ISR.c **** * 
 188:Generated_Source\PSoC5/CLR_STR_ISR.c **** *   When defining ISR functions, the CY_ISR and CY_ISR_PROTO macros should be 
 189:Generated_Source\PSoC5/CLR_STR_ISR.c **** *   used to provide consistent definition across compilers:
 190:Generated_Source\PSoC5/CLR_STR_ISR.c **** *
 191:Generated_Source\PSoC5/CLR_STR_ISR.c **** *   Function definition example:
 192:Generated_Source\PSoC5/CLR_STR_ISR.c **** *   CY_ISR(MyISR)
 193:Generated_Source\PSoC5/CLR_STR_ISR.c **** *   {
 194:Generated_Source\PSoC5/CLR_STR_ISR.c **** *   }
 195:Generated_Source\PSoC5/CLR_STR_ISR.c **** *
 196:Generated_Source\PSoC5/CLR_STR_ISR.c **** *   Function prototype example:
 197:Generated_Source\PSoC5/CLR_STR_ISR.c **** *     CY_ISR_PROTO(MyISR);
 198:Generated_Source\PSoC5/CLR_STR_ISR.c **** *
 199:Generated_Source\PSoC5/CLR_STR_ISR.c **** * Parameters:
 200:Generated_Source\PSoC5/CLR_STR_ISR.c **** *   address: Address of the ISR to set in the interrupt vector table.
 201:Generated_Source\PSoC5/CLR_STR_ISR.c **** *
 202:Generated_Source\PSoC5/CLR_STR_ISR.c **** * Return:
 203:Generated_Source\PSoC5/CLR_STR_ISR.c **** *   None
 204:Generated_Source\PSoC5/CLR_STR_ISR.c **** *
 205:Generated_Source\PSoC5/CLR_STR_ISR.c **** *******************************************************************************/
 206:Generated_Source\PSoC5/CLR_STR_ISR.c **** void CLR_STR_ISR_SetVector(cyisraddress address)
 207:Generated_Source\PSoC5/CLR_STR_ISR.c **** {
  70              		.loc 1 207 0
  71              		.cfi_startproc
  72              		@ args = 0, pretend = 0, frame = 0
  73              		@ frame_needed = 0, uses_anonymous_args = 0
  74              		@ link register save eliminated.
  75              	.LVL2:
 208:Generated_Source\PSoC5/CLR_STR_ISR.c ****     cyisraddress * ramVectorTable;
 209:Generated_Source\PSoC5/CLR_STR_ISR.c **** 
 210:Generated_Source\PSoC5/CLR_STR_ISR.c ****     ramVectorTable = (cyisraddress *) *CYINT_VECT_TABLE;
ARM GAS  C:\Users\dmarsch\AppData\Local\Temp\ccviHmsi.s 			page 6


  76              		.loc 1 210 0
  77 0000 014B     		ldr	r3, .L7
  78 0002 1B68     		ldr	r3, [r3]
  79              	.LVL3:
 211:Generated_Source\PSoC5/CLR_STR_ISR.c **** 
 212:Generated_Source\PSoC5/CLR_STR_ISR.c ****     ramVectorTable[CYINT_IRQ_BASE + (uint32)CLR_STR_ISR__INTC_NUMBER] = address;
  80              		.loc 1 212 0
  81 0004 1865     		str	r0, [r3, #80]
  82 0006 7047     		bx	lr
  83              	.L8:
  84              		.align	2
  85              	.L7:
  86 0008 08ED00E0 		.word	-536810232
  87              		.cfi_endproc
  88              	.LFE4:
  89              		.size	CLR_STR_ISR_SetVector, .-CLR_STR_ISR_SetVector
  90              		.section	.text.CLR_STR_ISR_GetVector,"ax",%progbits
  91              		.align	2
  92              		.global	CLR_STR_ISR_GetVector
  93              		.thumb
  94              		.thumb_func
  95              		.type	CLR_STR_ISR_GetVector, %function
  96              	CLR_STR_ISR_GetVector:
  97              	.LFB5:
 213:Generated_Source\PSoC5/CLR_STR_ISR.c **** }
 214:Generated_Source\PSoC5/CLR_STR_ISR.c **** 
 215:Generated_Source\PSoC5/CLR_STR_ISR.c **** 
 216:Generated_Source\PSoC5/CLR_STR_ISR.c **** /*******************************************************************************
 217:Generated_Source\PSoC5/CLR_STR_ISR.c **** * Function Name: CLR_STR_ISR_GetVector
 218:Generated_Source\PSoC5/CLR_STR_ISR.c **** ********************************************************************************
 219:Generated_Source\PSoC5/CLR_STR_ISR.c **** *
 220:Generated_Source\PSoC5/CLR_STR_ISR.c **** * Summary:
 221:Generated_Source\PSoC5/CLR_STR_ISR.c **** *   Gets the "address" of the current ISR vector for the Interrupt.
 222:Generated_Source\PSoC5/CLR_STR_ISR.c **** *
 223:Generated_Source\PSoC5/CLR_STR_ISR.c **** * Parameters:
 224:Generated_Source\PSoC5/CLR_STR_ISR.c **** *   None
 225:Generated_Source\PSoC5/CLR_STR_ISR.c **** *
 226:Generated_Source\PSoC5/CLR_STR_ISR.c **** * Return:
 227:Generated_Source\PSoC5/CLR_STR_ISR.c **** *   Address of the ISR in the interrupt vector table.
 228:Generated_Source\PSoC5/CLR_STR_ISR.c **** *
 229:Generated_Source\PSoC5/CLR_STR_ISR.c **** *******************************************************************************/
 230:Generated_Source\PSoC5/CLR_STR_ISR.c **** cyisraddress CLR_STR_ISR_GetVector(void)
 231:Generated_Source\PSoC5/CLR_STR_ISR.c **** {
  98              		.loc 1 231 0
  99              		.cfi_startproc
 100              		@ args = 0, pretend = 0, frame = 0
 101              		@ frame_needed = 0, uses_anonymous_args = 0
 102              		@ link register save eliminated.
 232:Generated_Source\PSoC5/CLR_STR_ISR.c ****     cyisraddress * ramVectorTable;
 233:Generated_Source\PSoC5/CLR_STR_ISR.c **** 
 234:Generated_Source\PSoC5/CLR_STR_ISR.c ****     ramVectorTable = (cyisraddress *) *CYINT_VECT_TABLE;
 103              		.loc 1 234 0
 104 0000 014B     		ldr	r3, .L10
 105 0002 1B68     		ldr	r3, [r3]
 106              	.LVL4:
 235:Generated_Source\PSoC5/CLR_STR_ISR.c **** 
 236:Generated_Source\PSoC5/CLR_STR_ISR.c ****     return ramVectorTable[CYINT_IRQ_BASE + (uint32)CLR_STR_ISR__INTC_NUMBER];
ARM GAS  C:\Users\dmarsch\AppData\Local\Temp\ccviHmsi.s 			page 7


 237:Generated_Source\PSoC5/CLR_STR_ISR.c **** }
 107              		.loc 1 237 0
 108 0004 186D     		ldr	r0, [r3, #80]
 109 0006 7047     		bx	lr
 110              	.L11:
 111              		.align	2
 112              	.L10:
 113 0008 08ED00E0 		.word	-536810232
 114              		.cfi_endproc
 115              	.LFE5:
 116              		.size	CLR_STR_ISR_GetVector, .-CLR_STR_ISR_GetVector
 117              		.section	.text.CLR_STR_ISR_SetPriority,"ax",%progbits
 118              		.align	2
 119              		.global	CLR_STR_ISR_SetPriority
 120              		.thumb
 121              		.thumb_func
 122              		.type	CLR_STR_ISR_SetPriority, %function
 123              	CLR_STR_ISR_SetPriority:
 124              	.LFB6:
 238:Generated_Source\PSoC5/CLR_STR_ISR.c **** 
 239:Generated_Source\PSoC5/CLR_STR_ISR.c **** 
 240:Generated_Source\PSoC5/CLR_STR_ISR.c **** /*******************************************************************************
 241:Generated_Source\PSoC5/CLR_STR_ISR.c **** * Function Name: CLR_STR_ISR_SetPriority
 242:Generated_Source\PSoC5/CLR_STR_ISR.c **** ********************************************************************************
 243:Generated_Source\PSoC5/CLR_STR_ISR.c **** *
 244:Generated_Source\PSoC5/CLR_STR_ISR.c **** * Summary:
 245:Generated_Source\PSoC5/CLR_STR_ISR.c **** *   Sets the Priority of the Interrupt. 
 246:Generated_Source\PSoC5/CLR_STR_ISR.c **** *
 247:Generated_Source\PSoC5/CLR_STR_ISR.c **** *   Note calling CLR_STR_ISR_Start or CLR_STR_ISR_StartEx will 
 248:Generated_Source\PSoC5/CLR_STR_ISR.c **** *   override any effect this API would have had. This API should only be called
 249:Generated_Source\PSoC5/CLR_STR_ISR.c **** *   after CLR_STR_ISR_Start or CLR_STR_ISR_StartEx has been called. 
 250:Generated_Source\PSoC5/CLR_STR_ISR.c **** *   To set the initial priority for the component, use the Design-Wide Resources
 251:Generated_Source\PSoC5/CLR_STR_ISR.c **** *   Interrupt Editor.
 252:Generated_Source\PSoC5/CLR_STR_ISR.c **** *
 253:Generated_Source\PSoC5/CLR_STR_ISR.c **** *   Note This API has no effect on Non-maskable interrupt NMI).
 254:Generated_Source\PSoC5/CLR_STR_ISR.c **** *
 255:Generated_Source\PSoC5/CLR_STR_ISR.c **** * Parameters:
 256:Generated_Source\PSoC5/CLR_STR_ISR.c **** *   priority: Priority of the interrupt, 0 being the highest priority
 257:Generated_Source\PSoC5/CLR_STR_ISR.c **** *             PSoC 3 and PSoC 5LP: Priority is from 0 to 7.
 258:Generated_Source\PSoC5/CLR_STR_ISR.c **** *             PSoC 4: Priority is from 0 to 3.
 259:Generated_Source\PSoC5/CLR_STR_ISR.c **** *
 260:Generated_Source\PSoC5/CLR_STR_ISR.c **** * Return:
 261:Generated_Source\PSoC5/CLR_STR_ISR.c **** *   None
 262:Generated_Source\PSoC5/CLR_STR_ISR.c **** *
 263:Generated_Source\PSoC5/CLR_STR_ISR.c **** *******************************************************************************/
 264:Generated_Source\PSoC5/CLR_STR_ISR.c **** void CLR_STR_ISR_SetPriority(uint8 priority)
 265:Generated_Source\PSoC5/CLR_STR_ISR.c **** {
 125              		.loc 1 265 0
 126              		.cfi_startproc
 127              		@ args = 0, pretend = 0, frame = 0
 128              		@ frame_needed = 0, uses_anonymous_args = 0
 129              		@ link register save eliminated.
 130              	.LVL5:
 266:Generated_Source\PSoC5/CLR_STR_ISR.c ****     *CLR_STR_ISR_INTC_PRIOR = priority << 5;
 131              		.loc 1 266 0
 132 0000 4001     		lsls	r0, r0, #5
 133              	.LVL6:
ARM GAS  C:\Users\dmarsch\AppData\Local\Temp\ccviHmsi.s 			page 8


 134 0002 C0B2     		uxtb	r0, r0
 135 0004 014B     		ldr	r3, .L13
 136 0006 1870     		strb	r0, [r3]
 137 0008 7047     		bx	lr
 138              	.L14:
 139 000a 00BF     		.align	2
 140              	.L13:
 141 000c 04E400E0 		.word	-536812540
 142              		.cfi_endproc
 143              	.LFE6:
 144              		.size	CLR_STR_ISR_SetPriority, .-CLR_STR_ISR_SetPriority
 145              		.section	.text.CLR_STR_ISR_GetPriority,"ax",%progbits
 146              		.align	2
 147              		.global	CLR_STR_ISR_GetPriority
 148              		.thumb
 149              		.thumb_func
 150              		.type	CLR_STR_ISR_GetPriority, %function
 151              	CLR_STR_ISR_GetPriority:
 152              	.LFB7:
 267:Generated_Source\PSoC5/CLR_STR_ISR.c **** }
 268:Generated_Source\PSoC5/CLR_STR_ISR.c **** 
 269:Generated_Source\PSoC5/CLR_STR_ISR.c **** 
 270:Generated_Source\PSoC5/CLR_STR_ISR.c **** /*******************************************************************************
 271:Generated_Source\PSoC5/CLR_STR_ISR.c **** * Function Name: CLR_STR_ISR_GetPriority
 272:Generated_Source\PSoC5/CLR_STR_ISR.c **** ********************************************************************************
 273:Generated_Source\PSoC5/CLR_STR_ISR.c **** *
 274:Generated_Source\PSoC5/CLR_STR_ISR.c **** * Summary:
 275:Generated_Source\PSoC5/CLR_STR_ISR.c **** *   Gets the Priority of the Interrupt.
 276:Generated_Source\PSoC5/CLR_STR_ISR.c **** *
 277:Generated_Source\PSoC5/CLR_STR_ISR.c **** * Parameters:
 278:Generated_Source\PSoC5/CLR_STR_ISR.c **** *   None
 279:Generated_Source\PSoC5/CLR_STR_ISR.c **** *
 280:Generated_Source\PSoC5/CLR_STR_ISR.c **** * Return:
 281:Generated_Source\PSoC5/CLR_STR_ISR.c **** *   Priority of the interrupt, 0 being the highest priority
 282:Generated_Source\PSoC5/CLR_STR_ISR.c **** *    PSoC 3 and PSoC 5LP: Priority is from 0 to 7.
 283:Generated_Source\PSoC5/CLR_STR_ISR.c **** *    PSoC 4: Priority is from 0 to 3.
 284:Generated_Source\PSoC5/CLR_STR_ISR.c **** *
 285:Generated_Source\PSoC5/CLR_STR_ISR.c **** *******************************************************************************/
 286:Generated_Source\PSoC5/CLR_STR_ISR.c **** uint8 CLR_STR_ISR_GetPriority(void)
 287:Generated_Source\PSoC5/CLR_STR_ISR.c **** {
 153              		.loc 1 287 0
 154              		.cfi_startproc
 155              		@ args = 0, pretend = 0, frame = 0
 156              		@ frame_needed = 0, uses_anonymous_args = 0
 157              		@ link register save eliminated.
 288:Generated_Source\PSoC5/CLR_STR_ISR.c ****     uint8 priority;
 289:Generated_Source\PSoC5/CLR_STR_ISR.c **** 
 290:Generated_Source\PSoC5/CLR_STR_ISR.c **** 
 291:Generated_Source\PSoC5/CLR_STR_ISR.c ****     priority = *CLR_STR_ISR_INTC_PRIOR >> 5;
 158              		.loc 1 291 0
 159 0000 014B     		ldr	r3, .L16
 160 0002 1878     		ldrb	r0, [r3]	@ zero_extendqisi2
 161              	.LVL7:
 292:Generated_Source\PSoC5/CLR_STR_ISR.c **** 
 293:Generated_Source\PSoC5/CLR_STR_ISR.c ****     return priority;
 294:Generated_Source\PSoC5/CLR_STR_ISR.c **** }
 162              		.loc 1 294 0
ARM GAS  C:\Users\dmarsch\AppData\Local\Temp\ccviHmsi.s 			page 9


 163 0004 4009     		lsrs	r0, r0, #5
 164              	.LVL8:
 165 0006 7047     		bx	lr
 166              	.L17:
 167              		.align	2
 168              	.L16:
 169 0008 04E400E0 		.word	-536812540
 170              		.cfi_endproc
 171              	.LFE7:
 172              		.size	CLR_STR_ISR_GetPriority, .-CLR_STR_ISR_GetPriority
 173              		.section	.text.CLR_STR_ISR_Enable,"ax",%progbits
 174              		.align	2
 175              		.global	CLR_STR_ISR_Enable
 176              		.thumb
 177              		.thumb_func
 178              		.type	CLR_STR_ISR_Enable, %function
 179              	CLR_STR_ISR_Enable:
 180              	.LFB8:
 295:Generated_Source\PSoC5/CLR_STR_ISR.c **** 
 296:Generated_Source\PSoC5/CLR_STR_ISR.c **** 
 297:Generated_Source\PSoC5/CLR_STR_ISR.c **** /*******************************************************************************
 298:Generated_Source\PSoC5/CLR_STR_ISR.c **** * Function Name: CLR_STR_ISR_Enable
 299:Generated_Source\PSoC5/CLR_STR_ISR.c **** ********************************************************************************
 300:Generated_Source\PSoC5/CLR_STR_ISR.c **** *
 301:Generated_Source\PSoC5/CLR_STR_ISR.c **** * Summary:
 302:Generated_Source\PSoC5/CLR_STR_ISR.c **** *   Enables the interrupt to the interrupt controller. Do not call this function
 303:Generated_Source\PSoC5/CLR_STR_ISR.c **** *   unless ISR_Start() has been called or the functionality of the ISR_Start() 
 304:Generated_Source\PSoC5/CLR_STR_ISR.c **** *   function, which sets the vector and the priority, has been called.
 305:Generated_Source\PSoC5/CLR_STR_ISR.c **** *
 306:Generated_Source\PSoC5/CLR_STR_ISR.c **** * Parameters:
 307:Generated_Source\PSoC5/CLR_STR_ISR.c **** *   None
 308:Generated_Source\PSoC5/CLR_STR_ISR.c **** *
 309:Generated_Source\PSoC5/CLR_STR_ISR.c **** * Return:
 310:Generated_Source\PSoC5/CLR_STR_ISR.c **** *   None
 311:Generated_Source\PSoC5/CLR_STR_ISR.c **** *
 312:Generated_Source\PSoC5/CLR_STR_ISR.c **** *******************************************************************************/
 313:Generated_Source\PSoC5/CLR_STR_ISR.c **** void CLR_STR_ISR_Enable(void)
 314:Generated_Source\PSoC5/CLR_STR_ISR.c **** {
 181              		.loc 1 314 0
 182              		.cfi_startproc
 183              		@ args = 0, pretend = 0, frame = 0
 184              		@ frame_needed = 0, uses_anonymous_args = 0
 185              		@ link register save eliminated.
 315:Generated_Source\PSoC5/CLR_STR_ISR.c ****     /* Enable the general interrupt. */
 316:Generated_Source\PSoC5/CLR_STR_ISR.c ****     *CLR_STR_ISR_INTC_SET_EN = CLR_STR_ISR__INTC_MASK;
 186              		.loc 1 316 0
 187 0000 1022     		movs	r2, #16
 188 0002 014B     		ldr	r3, .L19
 189 0004 1A60     		str	r2, [r3]
 190 0006 7047     		bx	lr
 191              	.L20:
 192              		.align	2
 193              	.L19:
 194 0008 00E100E0 		.word	-536813312
 195              		.cfi_endproc
 196              	.LFE8:
 197              		.size	CLR_STR_ISR_Enable, .-CLR_STR_ISR_Enable
ARM GAS  C:\Users\dmarsch\AppData\Local\Temp\ccviHmsi.s 			page 10


 198              		.section	.text.CLR_STR_ISR_GetState,"ax",%progbits
 199              		.align	2
 200              		.global	CLR_STR_ISR_GetState
 201              		.thumb
 202              		.thumb_func
 203              		.type	CLR_STR_ISR_GetState, %function
 204              	CLR_STR_ISR_GetState:
 205              	.LFB9:
 317:Generated_Source\PSoC5/CLR_STR_ISR.c **** }
 318:Generated_Source\PSoC5/CLR_STR_ISR.c **** 
 319:Generated_Source\PSoC5/CLR_STR_ISR.c **** 
 320:Generated_Source\PSoC5/CLR_STR_ISR.c **** /*******************************************************************************
 321:Generated_Source\PSoC5/CLR_STR_ISR.c **** * Function Name: CLR_STR_ISR_GetState
 322:Generated_Source\PSoC5/CLR_STR_ISR.c **** ********************************************************************************
 323:Generated_Source\PSoC5/CLR_STR_ISR.c **** *
 324:Generated_Source\PSoC5/CLR_STR_ISR.c **** * Summary:
 325:Generated_Source\PSoC5/CLR_STR_ISR.c **** *   Gets the state (enabled, disabled) of the Interrupt.
 326:Generated_Source\PSoC5/CLR_STR_ISR.c **** *
 327:Generated_Source\PSoC5/CLR_STR_ISR.c **** * Parameters:
 328:Generated_Source\PSoC5/CLR_STR_ISR.c **** *   None
 329:Generated_Source\PSoC5/CLR_STR_ISR.c **** *
 330:Generated_Source\PSoC5/CLR_STR_ISR.c **** * Return:
 331:Generated_Source\PSoC5/CLR_STR_ISR.c **** *   1 if enabled, 0 if disabled.
 332:Generated_Source\PSoC5/CLR_STR_ISR.c **** *
 333:Generated_Source\PSoC5/CLR_STR_ISR.c **** *******************************************************************************/
 334:Generated_Source\PSoC5/CLR_STR_ISR.c **** uint8 CLR_STR_ISR_GetState(void)
 335:Generated_Source\PSoC5/CLR_STR_ISR.c **** {
 206              		.loc 1 335 0
 207              		.cfi_startproc
 208              		@ args = 0, pretend = 0, frame = 0
 209              		@ frame_needed = 0, uses_anonymous_args = 0
 210              		@ link register save eliminated.
 336:Generated_Source\PSoC5/CLR_STR_ISR.c ****     /* Get the state of the general interrupt. */
 337:Generated_Source\PSoC5/CLR_STR_ISR.c ****     return ((*CLR_STR_ISR_INTC_SET_EN & (uint32)CLR_STR_ISR__INTC_MASK) != 0u) ? 1u:0u;
 211              		.loc 1 337 0
 212 0000 044B     		ldr	r3, .L24
 213 0002 1B68     		ldr	r3, [r3]
 214 0004 13F0100F 		tst	r3, #16
 215 0008 01D0     		beq	.L23
 216 000a 0120     		movs	r0, #1
 217 000c 7047     		bx	lr
 218              	.L23:
 219 000e 0020     		movs	r0, #0
 338:Generated_Source\PSoC5/CLR_STR_ISR.c **** }
 220              		.loc 1 338 0
 221 0010 7047     		bx	lr
 222              	.L25:
 223 0012 00BF     		.align	2
 224              	.L24:
 225 0014 00E100E0 		.word	-536813312
 226              		.cfi_endproc
 227              	.LFE9:
 228              		.size	CLR_STR_ISR_GetState, .-CLR_STR_ISR_GetState
 229              		.section	.text.CLR_STR_ISR_Disable,"ax",%progbits
 230              		.align	2
 231              		.global	CLR_STR_ISR_Disable
 232              		.thumb
ARM GAS  C:\Users\dmarsch\AppData\Local\Temp\ccviHmsi.s 			page 11


 233              		.thumb_func
 234              		.type	CLR_STR_ISR_Disable, %function
 235              	CLR_STR_ISR_Disable:
 236              	.LFB10:
 339:Generated_Source\PSoC5/CLR_STR_ISR.c **** 
 340:Generated_Source\PSoC5/CLR_STR_ISR.c **** 
 341:Generated_Source\PSoC5/CLR_STR_ISR.c **** /*******************************************************************************
 342:Generated_Source\PSoC5/CLR_STR_ISR.c **** * Function Name: CLR_STR_ISR_Disable
 343:Generated_Source\PSoC5/CLR_STR_ISR.c **** ********************************************************************************
 344:Generated_Source\PSoC5/CLR_STR_ISR.c **** *
 345:Generated_Source\PSoC5/CLR_STR_ISR.c **** * Summary:
 346:Generated_Source\PSoC5/CLR_STR_ISR.c **** *   Disables the Interrupt in the interrupt controller.
 347:Generated_Source\PSoC5/CLR_STR_ISR.c **** *
 348:Generated_Source\PSoC5/CLR_STR_ISR.c **** * Parameters:
 349:Generated_Source\PSoC5/CLR_STR_ISR.c **** *   None
 350:Generated_Source\PSoC5/CLR_STR_ISR.c **** *
 351:Generated_Source\PSoC5/CLR_STR_ISR.c **** * Return:
 352:Generated_Source\PSoC5/CLR_STR_ISR.c **** *   None
 353:Generated_Source\PSoC5/CLR_STR_ISR.c **** *
 354:Generated_Source\PSoC5/CLR_STR_ISR.c **** *******************************************************************************/
 355:Generated_Source\PSoC5/CLR_STR_ISR.c **** void CLR_STR_ISR_Disable(void)
 356:Generated_Source\PSoC5/CLR_STR_ISR.c **** {
 237              		.loc 1 356 0
 238              		.cfi_startproc
 239              		@ args = 0, pretend = 0, frame = 0
 240              		@ frame_needed = 0, uses_anonymous_args = 0
 241              		@ link register save eliminated.
 357:Generated_Source\PSoC5/CLR_STR_ISR.c ****     /* Disable the general interrupt. */
 358:Generated_Source\PSoC5/CLR_STR_ISR.c ****     *CLR_STR_ISR_INTC_CLR_EN = CLR_STR_ISR__INTC_MASK;
 242              		.loc 1 358 0
 243 0000 1022     		movs	r2, #16
 244 0002 014B     		ldr	r3, .L27
 245 0004 1A60     		str	r2, [r3]
 246 0006 7047     		bx	lr
 247              	.L28:
 248              		.align	2
 249              	.L27:
 250 0008 80E100E0 		.word	-536813184
 251              		.cfi_endproc
 252              	.LFE10:
 253              		.size	CLR_STR_ISR_Disable, .-CLR_STR_ISR_Disable
 254              		.section	.text.CLR_STR_ISR_Start,"ax",%progbits
 255              		.align	2
 256              		.global	CLR_STR_ISR_Start
 257              		.thumb
 258              		.thumb_func
 259              		.type	CLR_STR_ISR_Start, %function
 260              	CLR_STR_ISR_Start:
 261              	.LFB0:
  65:Generated_Source\PSoC5/CLR_STR_ISR.c ****     /* For all we know the interrupt is active. */
 262              		.loc 1 65 0
 263              		.cfi_startproc
 264              		@ args = 0, pretend = 0, frame = 0
 265              		@ frame_needed = 0, uses_anonymous_args = 0
 266 0000 08B5     		push	{r3, lr}
 267              		.cfi_def_cfa_offset 8
 268              		.cfi_offset 3, -8
ARM GAS  C:\Users\dmarsch\AppData\Local\Temp\ccviHmsi.s 			page 12


 269              		.cfi_offset 14, -4
  67:Generated_Source\PSoC5/CLR_STR_ISR.c **** 
 270              		.loc 1 67 0
 271 0002 FFF7FEFF 		bl	CLR_STR_ISR_Disable
 272              	.LVL9:
  70:Generated_Source\PSoC5/CLR_STR_ISR.c **** 
 273              		.loc 1 70 0
 274 0006 0448     		ldr	r0, .L31
 275 0008 FFF7FEFF 		bl	CLR_STR_ISR_SetVector
 276              	.LVL10:
  73:Generated_Source\PSoC5/CLR_STR_ISR.c **** 
 277              		.loc 1 73 0
 278 000c 0720     		movs	r0, #7
 279 000e FFF7FEFF 		bl	CLR_STR_ISR_SetPriority
 280              	.LVL11:
  76:Generated_Source\PSoC5/CLR_STR_ISR.c **** }
 281              		.loc 1 76 0
 282 0012 FFF7FEFF 		bl	CLR_STR_ISR_Enable
 283              	.LVL12:
 284 0016 08BD     		pop	{r3, pc}
 285              	.L32:
 286              		.align	2
 287              	.L31:
 288 0018 00000000 		.word	CLR_STR_ISR_Interrupt
 289              		.cfi_endproc
 290              	.LFE0:
 291              		.size	CLR_STR_ISR_Start, .-CLR_STR_ISR_Start
 292              		.section	.text.CLR_STR_ISR_StartEx,"ax",%progbits
 293              		.align	2
 294              		.global	CLR_STR_ISR_StartEx
 295              		.thumb
 296              		.thumb_func
 297              		.type	CLR_STR_ISR_StartEx, %function
 298              	CLR_STR_ISR_StartEx:
 299              	.LFB1:
 108:Generated_Source\PSoC5/CLR_STR_ISR.c ****     /* For all we know the interrupt is active. */
 300              		.loc 1 108 0
 301              		.cfi_startproc
 302              		@ args = 0, pretend = 0, frame = 0
 303              		@ frame_needed = 0, uses_anonymous_args = 0
 304              	.LVL13:
 305 0000 10B5     		push	{r4, lr}
 306              		.cfi_def_cfa_offset 8
 307              		.cfi_offset 4, -8
 308              		.cfi_offset 14, -4
 309 0002 0446     		mov	r4, r0
 110:Generated_Source\PSoC5/CLR_STR_ISR.c **** 
 310              		.loc 1 110 0
 311 0004 FFF7FEFF 		bl	CLR_STR_ISR_Disable
 312              	.LVL14:
 113:Generated_Source\PSoC5/CLR_STR_ISR.c **** 
 313              		.loc 1 113 0
 314 0008 2046     		mov	r0, r4
 315 000a FFF7FEFF 		bl	CLR_STR_ISR_SetVector
 316              	.LVL15:
 116:Generated_Source\PSoC5/CLR_STR_ISR.c **** 
 317              		.loc 1 116 0
ARM GAS  C:\Users\dmarsch\AppData\Local\Temp\ccviHmsi.s 			page 13


 318 000e 0720     		movs	r0, #7
 319 0010 FFF7FEFF 		bl	CLR_STR_ISR_SetPriority
 320              	.LVL16:
 119:Generated_Source\PSoC5/CLR_STR_ISR.c **** }
 321              		.loc 1 119 0
 322 0014 FFF7FEFF 		bl	CLR_STR_ISR_Enable
 323              	.LVL17:
 324 0018 10BD     		pop	{r4, pc}
 325              		.cfi_endproc
 326              	.LFE1:
 327              		.size	CLR_STR_ISR_StartEx, .-CLR_STR_ISR_StartEx
 328 001a 00BF     		.section	.text.CLR_STR_ISR_Stop,"ax",%progbits
 329              		.align	2
 330              		.global	CLR_STR_ISR_Stop
 331              		.thumb
 332              		.thumb_func
 333              		.type	CLR_STR_ISR_Stop, %function
 334              	CLR_STR_ISR_Stop:
 335              	.LFB2:
 138:Generated_Source\PSoC5/CLR_STR_ISR.c ****     /* Disable this interrupt. */
 336              		.loc 1 138 0
 337              		.cfi_startproc
 338              		@ args = 0, pretend = 0, frame = 0
 339              		@ frame_needed = 0, uses_anonymous_args = 0
 340 0000 08B5     		push	{r3, lr}
 341              		.cfi_def_cfa_offset 8
 342              		.cfi_offset 3, -8
 343              		.cfi_offset 14, -4
 140:Generated_Source\PSoC5/CLR_STR_ISR.c **** 
 344              		.loc 1 140 0
 345 0002 FFF7FEFF 		bl	CLR_STR_ISR_Disable
 346              	.LVL18:
 143:Generated_Source\PSoC5/CLR_STR_ISR.c **** }
 347              		.loc 1 143 0
 348 0006 0248     		ldr	r0, .L37
 349 0008 FFF7FEFF 		bl	CLR_STR_ISR_SetVector
 350              	.LVL19:
 351 000c 08BD     		pop	{r3, pc}
 352              	.L38:
 353 000e 00BF     		.align	2
 354              	.L37:
 355 0010 00000000 		.word	IntDefaultHandler
 356              		.cfi_endproc
 357              	.LFE2:
 358              		.size	CLR_STR_ISR_Stop, .-CLR_STR_ISR_Stop
 359              		.section	.text.CLR_STR_ISR_SetPending,"ax",%progbits
 360              		.align	2
 361              		.global	CLR_STR_ISR_SetPending
 362              		.thumb
 363              		.thumb_func
 364              		.type	CLR_STR_ISR_SetPending, %function
 365              	CLR_STR_ISR_SetPending:
 366              	.LFB11:
 359:Generated_Source\PSoC5/CLR_STR_ISR.c **** }
 360:Generated_Source\PSoC5/CLR_STR_ISR.c **** 
 361:Generated_Source\PSoC5/CLR_STR_ISR.c **** 
 362:Generated_Source\PSoC5/CLR_STR_ISR.c **** /*******************************************************************************
ARM GAS  C:\Users\dmarsch\AppData\Local\Temp\ccviHmsi.s 			page 14


 363:Generated_Source\PSoC5/CLR_STR_ISR.c **** * Function Name: CLR_STR_ISR_SetPending
 364:Generated_Source\PSoC5/CLR_STR_ISR.c **** ********************************************************************************
 365:Generated_Source\PSoC5/CLR_STR_ISR.c **** *
 366:Generated_Source\PSoC5/CLR_STR_ISR.c **** * Summary:
 367:Generated_Source\PSoC5/CLR_STR_ISR.c **** *   Causes the Interrupt to enter the pending state, a software method of
 368:Generated_Source\PSoC5/CLR_STR_ISR.c **** *   generating the interrupt.
 369:Generated_Source\PSoC5/CLR_STR_ISR.c **** *
 370:Generated_Source\PSoC5/CLR_STR_ISR.c **** * Parameters:
 371:Generated_Source\PSoC5/CLR_STR_ISR.c **** *   None
 372:Generated_Source\PSoC5/CLR_STR_ISR.c **** *
 373:Generated_Source\PSoC5/CLR_STR_ISR.c **** * Return:
 374:Generated_Source\PSoC5/CLR_STR_ISR.c **** *   None
 375:Generated_Source\PSoC5/CLR_STR_ISR.c **** *
 376:Generated_Source\PSoC5/CLR_STR_ISR.c **** * Side Effects:
 377:Generated_Source\PSoC5/CLR_STR_ISR.c **** *   If interrupts are enabled and the interrupt is set up properly, the ISR is
 378:Generated_Source\PSoC5/CLR_STR_ISR.c **** *   entered (depending on the priority of this interrupt and other pending 
 379:Generated_Source\PSoC5/CLR_STR_ISR.c **** *   interrupts).
 380:Generated_Source\PSoC5/CLR_STR_ISR.c **** *
 381:Generated_Source\PSoC5/CLR_STR_ISR.c **** *******************************************************************************/
 382:Generated_Source\PSoC5/CLR_STR_ISR.c **** void CLR_STR_ISR_SetPending(void)
 383:Generated_Source\PSoC5/CLR_STR_ISR.c **** {
 367              		.loc 1 383 0
 368              		.cfi_startproc
 369              		@ args = 0, pretend = 0, frame = 0
 370              		@ frame_needed = 0, uses_anonymous_args = 0
 371              		@ link register save eliminated.
 384:Generated_Source\PSoC5/CLR_STR_ISR.c ****     *CLR_STR_ISR_INTC_SET_PD = CLR_STR_ISR__INTC_MASK;
 372              		.loc 1 384 0
 373 0000 1022     		movs	r2, #16
 374 0002 014B     		ldr	r3, .L40
 375 0004 1A60     		str	r2, [r3]
 376 0006 7047     		bx	lr
 377              	.L41:
 378              		.align	2
 379              	.L40:
 380 0008 00E200E0 		.word	-536813056
 381              		.cfi_endproc
 382              	.LFE11:
 383              		.size	CLR_STR_ISR_SetPending, .-CLR_STR_ISR_SetPending
 384              		.section	.text.CLR_STR_ISR_ClearPending,"ax",%progbits
 385              		.align	2
 386              		.global	CLR_STR_ISR_ClearPending
 387              		.thumb
 388              		.thumb_func
 389              		.type	CLR_STR_ISR_ClearPending, %function
 390              	CLR_STR_ISR_ClearPending:
 391              	.LFB12:
 385:Generated_Source\PSoC5/CLR_STR_ISR.c **** }
 386:Generated_Source\PSoC5/CLR_STR_ISR.c **** 
 387:Generated_Source\PSoC5/CLR_STR_ISR.c **** 
 388:Generated_Source\PSoC5/CLR_STR_ISR.c **** /*******************************************************************************
 389:Generated_Source\PSoC5/CLR_STR_ISR.c **** * Function Name: CLR_STR_ISR_ClearPending
 390:Generated_Source\PSoC5/CLR_STR_ISR.c **** ********************************************************************************
 391:Generated_Source\PSoC5/CLR_STR_ISR.c **** *
 392:Generated_Source\PSoC5/CLR_STR_ISR.c **** * Summary:
 393:Generated_Source\PSoC5/CLR_STR_ISR.c **** *   Clears a pending interrupt in the interrupt controller.
 394:Generated_Source\PSoC5/CLR_STR_ISR.c **** *
ARM GAS  C:\Users\dmarsch\AppData\Local\Temp\ccviHmsi.s 			page 15


 395:Generated_Source\PSoC5/CLR_STR_ISR.c **** *   Note Some interrupt sources are clear-on-read and require the block 
 396:Generated_Source\PSoC5/CLR_STR_ISR.c **** *   interrupt/status register to be read/cleared with the appropriate block API 
 397:Generated_Source\PSoC5/CLR_STR_ISR.c **** *   (GPIO, UART, and so on). Otherwise the ISR will continue to remain in 
 398:Generated_Source\PSoC5/CLR_STR_ISR.c **** *   pending state even though the interrupt itself is cleared using this API.
 399:Generated_Source\PSoC5/CLR_STR_ISR.c **** *
 400:Generated_Source\PSoC5/CLR_STR_ISR.c **** * Parameters:
 401:Generated_Source\PSoC5/CLR_STR_ISR.c **** *   None
 402:Generated_Source\PSoC5/CLR_STR_ISR.c **** *
 403:Generated_Source\PSoC5/CLR_STR_ISR.c **** * Return:
 404:Generated_Source\PSoC5/CLR_STR_ISR.c **** *   None
 405:Generated_Source\PSoC5/CLR_STR_ISR.c **** *
 406:Generated_Source\PSoC5/CLR_STR_ISR.c **** *******************************************************************************/
 407:Generated_Source\PSoC5/CLR_STR_ISR.c **** void CLR_STR_ISR_ClearPending(void)
 408:Generated_Source\PSoC5/CLR_STR_ISR.c **** {
 392              		.loc 1 408 0
 393              		.cfi_startproc
 394              		@ args = 0, pretend = 0, frame = 0
 395              		@ frame_needed = 0, uses_anonymous_args = 0
 396              		@ link register save eliminated.
 409:Generated_Source\PSoC5/CLR_STR_ISR.c ****     *CLR_STR_ISR_INTC_CLR_PD = CLR_STR_ISR__INTC_MASK;
 397              		.loc 1 409 0
 398 0000 1022     		movs	r2, #16
 399 0002 014B     		ldr	r3, .L43
 400 0004 1A60     		str	r2, [r3]
 401 0006 7047     		bx	lr
 402              	.L44:
 403              		.align	2
 404              	.L43:
 405 0008 80E200E0 		.word	-536812928
 406              		.cfi_endproc
 407              	.LFE12:
 408              		.size	CLR_STR_ISR_ClearPending, .-CLR_STR_ISR_ClearPending
 409              		.comm	value,4,4
 410              		.comm	flag,4,4
 411              		.text
 412              	.Letext0:
 413              		.file 2 "Generated_Source\\PSoC5/cytypes.h"
 414              		.file 3 "Generated_Source\\PSoC5\\SW1.h"
 415              		.section	.debug_info,"",%progbits
 416              	.Ldebug_info0:
 417 0000 22030000 		.4byte	0x322
 418 0004 0400     		.2byte	0x4
 419 0006 00000000 		.4byte	.Ldebug_abbrev0
 420 000a 04       		.byte	0x4
 421 000b 01       		.uleb128 0x1
 422 000c B2000000 		.4byte	.LASF38
 423 0010 0C       		.byte	0xc
 424 0011 BF020000 		.4byte	.LASF39
 425 0015 CB010000 		.4byte	.LASF40
 426 0019 00000000 		.4byte	.Ldebug_ranges0+0
 427 001d 00000000 		.4byte	0
 428 0021 00000000 		.4byte	.Ldebug_line0
 429 0025 02       		.uleb128 0x2
 430 0026 04       		.byte	0x4
 431 0027 05       		.byte	0x5
 432 0028 696E7400 		.ascii	"int\000"
 433 002c 03       		.uleb128 0x3
ARM GAS  C:\Users\dmarsch\AppData\Local\Temp\ccviHmsi.s 			page 16


 434 002d 04       		.byte	0x4
 435 002e 07       		.byte	0x7
 436 002f 23020000 		.4byte	.LASF0
 437 0033 03       		.uleb128 0x3
 438 0034 08       		.byte	0x8
 439 0035 05       		.byte	0x5
 440 0036 93020000 		.4byte	.LASF1
 441 003a 03       		.uleb128 0x3
 442 003b 08       		.byte	0x8
 443 003c 04       		.byte	0x4
 444 003d 01030000 		.4byte	.LASF2
 445 0041 03       		.uleb128 0x3
 446 0042 01       		.byte	0x1
 447 0043 06       		.byte	0x6
 448 0044 0D030000 		.4byte	.LASF3
 449 0048 03       		.uleb128 0x3
 450 0049 01       		.byte	0x1
 451 004a 08       		.byte	0x8
 452 004b A4000000 		.4byte	.LASF4
 453 004f 03       		.uleb128 0x3
 454 0050 02       		.byte	0x2
 455 0051 05       		.byte	0x5
 456 0052 B5020000 		.4byte	.LASF5
 457 0056 03       		.uleb128 0x3
 458 0057 02       		.byte	0x2
 459 0058 07       		.byte	0x7
 460 0059 5F000000 		.4byte	.LASF6
 461 005d 03       		.uleb128 0x3
 462 005e 04       		.byte	0x4
 463 005f 05       		.byte	0x5
 464 0060 F8020000 		.4byte	.LASF7
 465 0064 03       		.uleb128 0x3
 466 0065 04       		.byte	0x4
 467 0066 07       		.byte	0x7
 468 0067 11020000 		.4byte	.LASF8
 469 006b 03       		.uleb128 0x3
 470 006c 08       		.byte	0x8
 471 006d 07       		.byte	0x7
 472 006e 49020000 		.4byte	.LASF9
 473 0072 03       		.uleb128 0x3
 474 0073 04       		.byte	0x4
 475 0074 07       		.byte	0x7
 476 0075 76020000 		.4byte	.LASF10
 477 0079 03       		.uleb128 0x3
 478 007a 01       		.byte	0x1
 479 007b 08       		.byte	0x8
 480 007c A1020000 		.4byte	.LASF11
 481 0080 04       		.uleb128 0x4
 482 0081 04       		.byte	0x4
 483 0082 86000000 		.4byte	0x86
 484 0086 05       		.uleb128 0x5
 485 0087 06       		.uleb128 0x6
 486 0088 71010000 		.4byte	.LASF12
 487 008c 02       		.byte	0x2
 488 008d E401     		.2byte	0x1e4
 489 008f 48000000 		.4byte	0x48
 490 0093 06       		.uleb128 0x6
ARM GAS  C:\Users\dmarsch\AppData\Local\Temp\ccviHmsi.s 			page 17


 491 0094 05020000 		.4byte	.LASF13
 492 0098 02       		.byte	0x2
 493 0099 E601     		.2byte	0x1e6
 494 009b 64000000 		.4byte	0x64
 495 009f 03       		.uleb128 0x3
 496 00a0 04       		.byte	0x4
 497 00a1 04       		.byte	0x4
 498 00a2 9E000000 		.4byte	.LASF14
 499 00a6 03       		.uleb128 0x3
 500 00a7 08       		.byte	0x8
 501 00a8 04       		.byte	0x4
 502 00a9 C4010000 		.4byte	.LASF15
 503 00ad 06       		.uleb128 0x6
 504 00ae 40010000 		.4byte	.LASF16
 505 00b2 02       		.byte	0x2
 506 00b3 8E02     		.2byte	0x28e
 507 00b5 B9000000 		.4byte	0xb9
 508 00b9 07       		.uleb128 0x7
 509 00ba 87000000 		.4byte	0x87
 510 00be 06       		.uleb128 0x6
 511 00bf 00000000 		.4byte	.LASF17
 512 00c3 02       		.byte	0x2
 513 00c4 9002     		.2byte	0x290
 514 00c6 CA000000 		.4byte	0xca
 515 00ca 07       		.uleb128 0x7
 516 00cb 93000000 		.4byte	0x93
 517 00cf 06       		.uleb128 0x6
 518 00d0 60020000 		.4byte	.LASF18
 519 00d4 02       		.byte	0x2
 520 00d5 A002     		.2byte	0x2a0
 521 00d7 80000000 		.4byte	0x80
 522 00db 08       		.uleb128 0x8
 523 00dc AE010000 		.4byte	.LASF19
 524 00e0 01       		.byte	0x1
 525 00e1 A3       		.byte	0xa3
 526 00e2 00000000 		.4byte	.LFB3
 527 00e6 24000000 		.4byte	.LFE3-.LFB3
 528 00ea 01       		.uleb128 0x1
 529 00eb 9C       		.byte	0x9c
 530 00ec 03010000 		.4byte	0x103
 531 00f0 09       		.uleb128 0x9
 532 00f1 06000000 		.4byte	.LVL0
 533 00f5 0F030000 		.4byte	0x30f
 534 00f9 09       		.uleb128 0x9
 535 00fa 1A000000 		.4byte	.LVL1
 536 00fe 1A030000 		.4byte	0x31a
 537 0102 00       		.byte	0
 538 0103 08       		.uleb128 0x8
 539 0104 06000000 		.4byte	.LASF20
 540 0108 01       		.byte	0x1
 541 0109 CE       		.byte	0xce
 542 010a 00000000 		.4byte	.LFB4
 543 010e 0C000000 		.4byte	.LFE4-.LFB4
 544 0112 01       		.uleb128 0x1
 545 0113 9C       		.byte	0x9c
 546 0114 33010000 		.4byte	0x133
 547 0118 0A       		.uleb128 0xa
ARM GAS  C:\Users\dmarsch\AppData\Local\Temp\ccviHmsi.s 			page 18


 548 0119 41020000 		.4byte	.LASF23
 549 011d 01       		.byte	0x1
 550 011e CE       		.byte	0xce
 551 011f CF000000 		.4byte	0xcf
 552 0123 01       		.uleb128 0x1
 553 0124 50       		.byte	0x50
 554 0125 0B       		.uleb128 0xb
 555 0126 A6020000 		.4byte	.LASF21
 556 012a 01       		.byte	0x1
 557 012b D0       		.byte	0xd0
 558 012c 33010000 		.4byte	0x133
 559 0130 01       		.uleb128 0x1
 560 0131 53       		.byte	0x53
 561 0132 00       		.byte	0
 562 0133 04       		.uleb128 0x4
 563 0134 04       		.byte	0x4
 564 0135 CF000000 		.4byte	0xcf
 565 0139 0C       		.uleb128 0xc
 566 013a 98010000 		.4byte	.LASF25
 567 013e 01       		.byte	0x1
 568 013f E6       		.byte	0xe6
 569 0140 CF000000 		.4byte	0xcf
 570 0144 00000000 		.4byte	.LFB5
 571 0148 0C000000 		.4byte	.LFE5-.LFB5
 572 014c 01       		.uleb128 0x1
 573 014d 9C       		.byte	0x9c
 574 014e 60010000 		.4byte	0x160
 575 0152 0B       		.uleb128 0xb
 576 0153 A6020000 		.4byte	.LASF21
 577 0157 01       		.byte	0x1
 578 0158 E8       		.byte	0xe8
 579 0159 33010000 		.4byte	0x133
 580 015d 01       		.uleb128 0x1
 581 015e 53       		.byte	0x53
 582 015f 00       		.byte	0
 583 0160 0D       		.uleb128 0xd
 584 0161 77010000 		.4byte	.LASF22
 585 0165 01       		.byte	0x1
 586 0166 0801     		.2byte	0x108
 587 0168 00000000 		.4byte	.LFB6
 588 016c 10000000 		.4byte	.LFE6-.LFB6
 589 0170 01       		.uleb128 0x1
 590 0171 9C       		.byte	0x9c
 591 0172 87010000 		.4byte	0x187
 592 0176 0E       		.uleb128 0xe
 593 0177 8F010000 		.4byte	.LASF24
 594 017b 01       		.byte	0x1
 595 017c 0801     		.2byte	0x108
 596 017e 87000000 		.4byte	0x87
 597 0182 00000000 		.4byte	.LLST0
 598 0186 00       		.byte	0
 599 0187 0F       		.uleb128 0xf
 600 0188 35000000 		.4byte	.LASF26
 601 018c 01       		.byte	0x1
 602 018d 1E01     		.2byte	0x11e
 603 018f 87000000 		.4byte	0x87
 604 0193 00000000 		.4byte	.LFB7
ARM GAS  C:\Users\dmarsch\AppData\Local\Temp\ccviHmsi.s 			page 19


 605 0197 0C000000 		.4byte	.LFE7-.LFB7
 606 019b 01       		.uleb128 0x1
 607 019c 9C       		.byte	0x9c
 608 019d B2010000 		.4byte	0x1b2
 609 01a1 10       		.uleb128 0x10
 610 01a2 8F010000 		.4byte	.LASF24
 611 01a6 01       		.byte	0x1
 612 01a7 2001     		.2byte	0x120
 613 01a9 87000000 		.4byte	0x87
 614 01ad 21000000 		.4byte	.LLST1
 615 01b1 00       		.byte	0
 616 01b2 11       		.uleb128 0x11
 617 01b3 1C000000 		.4byte	.LASF27
 618 01b7 01       		.byte	0x1
 619 01b8 3901     		.2byte	0x139
 620 01ba 00000000 		.4byte	.LFB8
 621 01be 0C000000 		.4byte	.LFE8-.LFB8
 622 01c2 01       		.uleb128 0x1
 623 01c3 9C       		.byte	0x9c
 624 01c4 12       		.uleb128 0x12
 625 01c5 89000000 		.4byte	.LASF41
 626 01c9 01       		.byte	0x1
 627 01ca 4E01     		.2byte	0x14e
 628 01cc 87000000 		.4byte	0x87
 629 01d0 00000000 		.4byte	.LFB9
 630 01d4 18000000 		.4byte	.LFE9-.LFB9
 631 01d8 01       		.uleb128 0x1
 632 01d9 9C       		.byte	0x9c
 633 01da 11       		.uleb128 0x11
 634 01db E4020000 		.4byte	.LASF28
 635 01df 01       		.byte	0x1
 636 01e0 6301     		.2byte	0x163
 637 01e2 00000000 		.4byte	.LFB10
 638 01e6 0C000000 		.4byte	.LFE10-.LFB10
 639 01ea 01       		.uleb128 0x1
 640 01eb 9C       		.byte	0x9c
 641 01ec 08       		.uleb128 0x8
 642 01ed 4D000000 		.4byte	.LASF29
 643 01f1 01       		.byte	0x1
 644 01f2 40       		.byte	0x40
 645 01f3 00000000 		.4byte	.LFB0
 646 01f7 1C000000 		.4byte	.LFE0-.LFB0
 647 01fb 01       		.uleb128 0x1
 648 01fc 9C       		.byte	0x9c
 649 01fd 3E020000 		.4byte	0x23e
 650 0201 09       		.uleb128 0x9
 651 0202 06000000 		.4byte	.LVL9
 652 0206 DA010000 		.4byte	0x1da
 653 020a 13       		.uleb128 0x13
 654 020b 0C000000 		.4byte	.LVL10
 655 020f 03010000 		.4byte	0x103
 656 0213 21020000 		.4byte	0x221
 657 0217 14       		.uleb128 0x14
 658 0218 01       		.uleb128 0x1
 659 0219 50       		.byte	0x50
 660 021a 05       		.uleb128 0x5
 661 021b 03       		.byte	0x3
ARM GAS  C:\Users\dmarsch\AppData\Local\Temp\ccviHmsi.s 			page 20


 662 021c 00000000 		.4byte	CLR_STR_ISR_Interrupt
 663 0220 00       		.byte	0
 664 0221 13       		.uleb128 0x13
 665 0222 12000000 		.4byte	.LVL11
 666 0226 60010000 		.4byte	0x160
 667 022a 34020000 		.4byte	0x234
 668 022e 14       		.uleb128 0x14
 669 022f 01       		.uleb128 0x1
 670 0230 50       		.byte	0x50
 671 0231 01       		.uleb128 0x1
 672 0232 37       		.byte	0x37
 673 0233 00       		.byte	0
 674 0234 09       		.uleb128 0x9
 675 0235 16000000 		.4byte	.LVL12
 676 0239 B2010000 		.4byte	0x1b2
 677 023d 00       		.byte	0
 678 023e 08       		.uleb128 0x8
 679 023f 7F020000 		.4byte	.LASF30
 680 0243 01       		.byte	0x1
 681 0244 6B       		.byte	0x6b
 682 0245 00000000 		.4byte	.LFB1
 683 0249 1A000000 		.4byte	.LFE1-.LFB1
 684 024d 01       		.uleb128 0x1
 685 024e 9C       		.byte	0x9c
 686 024f 9C020000 		.4byte	0x29c
 687 0253 15       		.uleb128 0x15
 688 0254 41020000 		.4byte	.LASF23
 689 0258 01       		.byte	0x1
 690 0259 6B       		.byte	0x6b
 691 025a CF000000 		.4byte	0xcf
 692 025e 38000000 		.4byte	.LLST2
 693 0262 09       		.uleb128 0x9
 694 0263 08000000 		.4byte	.LVL14
 695 0267 DA010000 		.4byte	0x1da
 696 026b 13       		.uleb128 0x13
 697 026c 0E000000 		.4byte	.LVL15
 698 0270 03010000 		.4byte	0x103
 699 0274 7F020000 		.4byte	0x27f
 700 0278 14       		.uleb128 0x14
 701 0279 01       		.uleb128 0x1
 702 027a 50       		.byte	0x50
 703 027b 02       		.uleb128 0x2
 704 027c 74       		.byte	0x74
 705 027d 00       		.sleb128 0
 706 027e 00       		.byte	0
 707 027f 13       		.uleb128 0x13
 708 0280 14000000 		.4byte	.LVL16
 709 0284 60010000 		.4byte	0x160
 710 0288 92020000 		.4byte	0x292
 711 028c 14       		.uleb128 0x14
 712 028d 01       		.uleb128 0x1
 713 028e 50       		.byte	0x50
 714 028f 01       		.uleb128 0x1
 715 0290 37       		.byte	0x37
 716 0291 00       		.byte	0
 717 0292 09       		.uleb128 0x9
 718 0293 18000000 		.4byte	.LVL17
ARM GAS  C:\Users\dmarsch\AppData\Local\Temp\ccviHmsi.s 			page 21


 719 0297 B2010000 		.4byte	0x1b2
 720 029b 00       		.byte	0
 721 029c 08       		.uleb128 0x8
 722 029d 30020000 		.4byte	.LASF31
 723 02a1 01       		.byte	0x1
 724 02a2 89       		.byte	0x89
 725 02a3 00000000 		.4byte	.LFB2
 726 02a7 14000000 		.4byte	.LFE2-.LFB2
 727 02ab 01       		.uleb128 0x1
 728 02ac 9C       		.byte	0x9c
 729 02ad C4020000 		.4byte	0x2c4
 730 02b1 09       		.uleb128 0x9
 731 02b2 06000000 		.4byte	.LVL18
 732 02b6 DA010000 		.4byte	0x1da
 733 02ba 09       		.uleb128 0x9
 734 02bb 0C000000 		.4byte	.LVL19
 735 02bf 03010000 		.4byte	0x103
 736 02c3 00       		.byte	0
 737 02c4 11       		.uleb128 0x11
 738 02c5 72000000 		.4byte	.LASF32
 739 02c9 01       		.byte	0x1
 740 02ca 7E01     		.2byte	0x17e
 741 02cc 00000000 		.4byte	.LFB11
 742 02d0 0C000000 		.4byte	.LFE11-.LFB11
 743 02d4 01       		.uleb128 0x1
 744 02d5 9C       		.byte	0x9c
 745 02d6 11       		.uleb128 0x11
 746 02d7 58010000 		.4byte	.LASF33
 747 02db 01       		.byte	0x1
 748 02dc 9701     		.2byte	0x197
 749 02de 00000000 		.4byte	.LFB12
 750 02e2 0C000000 		.4byte	.LFE12-.LFB12
 751 02e6 01       		.uleb128 0x1
 752 02e7 9C       		.byte	0x9c
 753 02e8 16       		.uleb128 0x16
 754 02e9 0C020000 		.4byte	.LASF34
 755 02ed 01       		.byte	0x1
 756 02ee 20       		.byte	0x20
 757 02ef F9020000 		.4byte	0x2f9
 758 02f3 05       		.uleb128 0x5
 759 02f4 03       		.byte	0x3
 760 02f5 00000000 		.4byte	flag
 761 02f9 07       		.uleb128 0x7
 762 02fa 25000000 		.4byte	0x25
 763 02fe 16       		.uleb128 0x16
 764 02ff 2F000000 		.4byte	.LASF35
 765 0303 01       		.byte	0x1
 766 0304 21       		.byte	0x21
 767 0305 F9020000 		.4byte	0x2f9
 768 0309 05       		.uleb128 0x5
 769 030a 03       		.byte	0x3
 770 030b 00000000 		.4byte	value
 771 030f 17       		.uleb128 0x17
 772 0310 6D020000 		.4byte	.LASF36
 773 0314 6D020000 		.4byte	.LASF36
 774 0318 03       		.byte	0x3
 775 0319 29       		.byte	0x29
ARM GAS  C:\Users\dmarsch\AppData\Local\Temp\ccviHmsi.s 			page 22


 776 031a 17       		.uleb128 0x17
 777 031b 45010000 		.4byte	.LASF37
 778 031f 45010000 		.4byte	.LASF37
 779 0323 03       		.byte	0x3
 780 0324 2B       		.byte	0x2b
 781 0325 00       		.byte	0
 782              		.section	.debug_abbrev,"",%progbits
 783              	.Ldebug_abbrev0:
 784 0000 01       		.uleb128 0x1
 785 0001 11       		.uleb128 0x11
 786 0002 01       		.byte	0x1
 787 0003 25       		.uleb128 0x25
 788 0004 0E       		.uleb128 0xe
 789 0005 13       		.uleb128 0x13
 790 0006 0B       		.uleb128 0xb
 791 0007 03       		.uleb128 0x3
 792 0008 0E       		.uleb128 0xe
 793 0009 1B       		.uleb128 0x1b
 794 000a 0E       		.uleb128 0xe
 795 000b 55       		.uleb128 0x55
 796 000c 17       		.uleb128 0x17
 797 000d 11       		.uleb128 0x11
 798 000e 01       		.uleb128 0x1
 799 000f 10       		.uleb128 0x10
 800 0010 17       		.uleb128 0x17
 801 0011 00       		.byte	0
 802 0012 00       		.byte	0
 803 0013 02       		.uleb128 0x2
 804 0014 24       		.uleb128 0x24
 805 0015 00       		.byte	0
 806 0016 0B       		.uleb128 0xb
 807 0017 0B       		.uleb128 0xb
 808 0018 3E       		.uleb128 0x3e
 809 0019 0B       		.uleb128 0xb
 810 001a 03       		.uleb128 0x3
 811 001b 08       		.uleb128 0x8
 812 001c 00       		.byte	0
 813 001d 00       		.byte	0
 814 001e 03       		.uleb128 0x3
 815 001f 24       		.uleb128 0x24
 816 0020 00       		.byte	0
 817 0021 0B       		.uleb128 0xb
 818 0022 0B       		.uleb128 0xb
 819 0023 3E       		.uleb128 0x3e
 820 0024 0B       		.uleb128 0xb
 821 0025 03       		.uleb128 0x3
 822 0026 0E       		.uleb128 0xe
 823 0027 00       		.byte	0
 824 0028 00       		.byte	0
 825 0029 04       		.uleb128 0x4
 826 002a 0F       		.uleb128 0xf
 827 002b 00       		.byte	0
 828 002c 0B       		.uleb128 0xb
 829 002d 0B       		.uleb128 0xb
 830 002e 49       		.uleb128 0x49
 831 002f 13       		.uleb128 0x13
 832 0030 00       		.byte	0
ARM GAS  C:\Users\dmarsch\AppData\Local\Temp\ccviHmsi.s 			page 23


 833 0031 00       		.byte	0
 834 0032 05       		.uleb128 0x5
 835 0033 15       		.uleb128 0x15
 836 0034 00       		.byte	0
 837 0035 27       		.uleb128 0x27
 838 0036 19       		.uleb128 0x19
 839 0037 00       		.byte	0
 840 0038 00       		.byte	0
 841 0039 06       		.uleb128 0x6
 842 003a 16       		.uleb128 0x16
 843 003b 00       		.byte	0
 844 003c 03       		.uleb128 0x3
 845 003d 0E       		.uleb128 0xe
 846 003e 3A       		.uleb128 0x3a
 847 003f 0B       		.uleb128 0xb
 848 0040 3B       		.uleb128 0x3b
 849 0041 05       		.uleb128 0x5
 850 0042 49       		.uleb128 0x49
 851 0043 13       		.uleb128 0x13
 852 0044 00       		.byte	0
 853 0045 00       		.byte	0
 854 0046 07       		.uleb128 0x7
 855 0047 35       		.uleb128 0x35
 856 0048 00       		.byte	0
 857 0049 49       		.uleb128 0x49
 858 004a 13       		.uleb128 0x13
 859 004b 00       		.byte	0
 860 004c 00       		.byte	0
 861 004d 08       		.uleb128 0x8
 862 004e 2E       		.uleb128 0x2e
 863 004f 01       		.byte	0x1
 864 0050 3F       		.uleb128 0x3f
 865 0051 19       		.uleb128 0x19
 866 0052 03       		.uleb128 0x3
 867 0053 0E       		.uleb128 0xe
 868 0054 3A       		.uleb128 0x3a
 869 0055 0B       		.uleb128 0xb
 870 0056 3B       		.uleb128 0x3b
 871 0057 0B       		.uleb128 0xb
 872 0058 27       		.uleb128 0x27
 873 0059 19       		.uleb128 0x19
 874 005a 11       		.uleb128 0x11
 875 005b 01       		.uleb128 0x1
 876 005c 12       		.uleb128 0x12
 877 005d 06       		.uleb128 0x6
 878 005e 40       		.uleb128 0x40
 879 005f 18       		.uleb128 0x18
 880 0060 9742     		.uleb128 0x2117
 881 0062 19       		.uleb128 0x19
 882 0063 01       		.uleb128 0x1
 883 0064 13       		.uleb128 0x13
 884 0065 00       		.byte	0
 885 0066 00       		.byte	0
 886 0067 09       		.uleb128 0x9
 887 0068 898201   		.uleb128 0x4109
 888 006b 00       		.byte	0
 889 006c 11       		.uleb128 0x11
ARM GAS  C:\Users\dmarsch\AppData\Local\Temp\ccviHmsi.s 			page 24


 890 006d 01       		.uleb128 0x1
 891 006e 31       		.uleb128 0x31
 892 006f 13       		.uleb128 0x13
 893 0070 00       		.byte	0
 894 0071 00       		.byte	0
 895 0072 0A       		.uleb128 0xa
 896 0073 05       		.uleb128 0x5
 897 0074 00       		.byte	0
 898 0075 03       		.uleb128 0x3
 899 0076 0E       		.uleb128 0xe
 900 0077 3A       		.uleb128 0x3a
 901 0078 0B       		.uleb128 0xb
 902 0079 3B       		.uleb128 0x3b
 903 007a 0B       		.uleb128 0xb
 904 007b 49       		.uleb128 0x49
 905 007c 13       		.uleb128 0x13
 906 007d 02       		.uleb128 0x2
 907 007e 18       		.uleb128 0x18
 908 007f 00       		.byte	0
 909 0080 00       		.byte	0
 910 0081 0B       		.uleb128 0xb
 911 0082 34       		.uleb128 0x34
 912 0083 00       		.byte	0
 913 0084 03       		.uleb128 0x3
 914 0085 0E       		.uleb128 0xe
 915 0086 3A       		.uleb128 0x3a
 916 0087 0B       		.uleb128 0xb
 917 0088 3B       		.uleb128 0x3b
 918 0089 0B       		.uleb128 0xb
 919 008a 49       		.uleb128 0x49
 920 008b 13       		.uleb128 0x13
 921 008c 02       		.uleb128 0x2
 922 008d 18       		.uleb128 0x18
 923 008e 00       		.byte	0
 924 008f 00       		.byte	0
 925 0090 0C       		.uleb128 0xc
 926 0091 2E       		.uleb128 0x2e
 927 0092 01       		.byte	0x1
 928 0093 3F       		.uleb128 0x3f
 929 0094 19       		.uleb128 0x19
 930 0095 03       		.uleb128 0x3
 931 0096 0E       		.uleb128 0xe
 932 0097 3A       		.uleb128 0x3a
 933 0098 0B       		.uleb128 0xb
 934 0099 3B       		.uleb128 0x3b
 935 009a 0B       		.uleb128 0xb
 936 009b 27       		.uleb128 0x27
 937 009c 19       		.uleb128 0x19
 938 009d 49       		.uleb128 0x49
 939 009e 13       		.uleb128 0x13
 940 009f 11       		.uleb128 0x11
 941 00a0 01       		.uleb128 0x1
 942 00a1 12       		.uleb128 0x12
 943 00a2 06       		.uleb128 0x6
 944 00a3 40       		.uleb128 0x40
 945 00a4 18       		.uleb128 0x18
 946 00a5 9742     		.uleb128 0x2117
ARM GAS  C:\Users\dmarsch\AppData\Local\Temp\ccviHmsi.s 			page 25


 947 00a7 19       		.uleb128 0x19
 948 00a8 01       		.uleb128 0x1
 949 00a9 13       		.uleb128 0x13
 950 00aa 00       		.byte	0
 951 00ab 00       		.byte	0
 952 00ac 0D       		.uleb128 0xd
 953 00ad 2E       		.uleb128 0x2e
 954 00ae 01       		.byte	0x1
 955 00af 3F       		.uleb128 0x3f
 956 00b0 19       		.uleb128 0x19
 957 00b1 03       		.uleb128 0x3
 958 00b2 0E       		.uleb128 0xe
 959 00b3 3A       		.uleb128 0x3a
 960 00b4 0B       		.uleb128 0xb
 961 00b5 3B       		.uleb128 0x3b
 962 00b6 05       		.uleb128 0x5
 963 00b7 27       		.uleb128 0x27
 964 00b8 19       		.uleb128 0x19
 965 00b9 11       		.uleb128 0x11
 966 00ba 01       		.uleb128 0x1
 967 00bb 12       		.uleb128 0x12
 968 00bc 06       		.uleb128 0x6
 969 00bd 40       		.uleb128 0x40
 970 00be 18       		.uleb128 0x18
 971 00bf 9742     		.uleb128 0x2117
 972 00c1 19       		.uleb128 0x19
 973 00c2 01       		.uleb128 0x1
 974 00c3 13       		.uleb128 0x13
 975 00c4 00       		.byte	0
 976 00c5 00       		.byte	0
 977 00c6 0E       		.uleb128 0xe
 978 00c7 05       		.uleb128 0x5
 979 00c8 00       		.byte	0
 980 00c9 03       		.uleb128 0x3
 981 00ca 0E       		.uleb128 0xe
 982 00cb 3A       		.uleb128 0x3a
 983 00cc 0B       		.uleb128 0xb
 984 00cd 3B       		.uleb128 0x3b
 985 00ce 05       		.uleb128 0x5
 986 00cf 49       		.uleb128 0x49
 987 00d0 13       		.uleb128 0x13
 988 00d1 02       		.uleb128 0x2
 989 00d2 17       		.uleb128 0x17
 990 00d3 00       		.byte	0
 991 00d4 00       		.byte	0
 992 00d5 0F       		.uleb128 0xf
 993 00d6 2E       		.uleb128 0x2e
 994 00d7 01       		.byte	0x1
 995 00d8 3F       		.uleb128 0x3f
 996 00d9 19       		.uleb128 0x19
 997 00da 03       		.uleb128 0x3
 998 00db 0E       		.uleb128 0xe
 999 00dc 3A       		.uleb128 0x3a
 1000 00dd 0B       		.uleb128 0xb
 1001 00de 3B       		.uleb128 0x3b
 1002 00df 05       		.uleb128 0x5
 1003 00e0 27       		.uleb128 0x27
ARM GAS  C:\Users\dmarsch\AppData\Local\Temp\ccviHmsi.s 			page 26


 1004 00e1 19       		.uleb128 0x19
 1005 00e2 49       		.uleb128 0x49
 1006 00e3 13       		.uleb128 0x13
 1007 00e4 11       		.uleb128 0x11
 1008 00e5 01       		.uleb128 0x1
 1009 00e6 12       		.uleb128 0x12
 1010 00e7 06       		.uleb128 0x6
 1011 00e8 40       		.uleb128 0x40
 1012 00e9 18       		.uleb128 0x18
 1013 00ea 9742     		.uleb128 0x2117
 1014 00ec 19       		.uleb128 0x19
 1015 00ed 01       		.uleb128 0x1
 1016 00ee 13       		.uleb128 0x13
 1017 00ef 00       		.byte	0
 1018 00f0 00       		.byte	0
 1019 00f1 10       		.uleb128 0x10
 1020 00f2 34       		.uleb128 0x34
 1021 00f3 00       		.byte	0
 1022 00f4 03       		.uleb128 0x3
 1023 00f5 0E       		.uleb128 0xe
 1024 00f6 3A       		.uleb128 0x3a
 1025 00f7 0B       		.uleb128 0xb
 1026 00f8 3B       		.uleb128 0x3b
 1027 00f9 05       		.uleb128 0x5
 1028 00fa 49       		.uleb128 0x49
 1029 00fb 13       		.uleb128 0x13
 1030 00fc 02       		.uleb128 0x2
 1031 00fd 17       		.uleb128 0x17
 1032 00fe 00       		.byte	0
 1033 00ff 00       		.byte	0
 1034 0100 11       		.uleb128 0x11
 1035 0101 2E       		.uleb128 0x2e
 1036 0102 00       		.byte	0
 1037 0103 3F       		.uleb128 0x3f
 1038 0104 19       		.uleb128 0x19
 1039 0105 03       		.uleb128 0x3
 1040 0106 0E       		.uleb128 0xe
 1041 0107 3A       		.uleb128 0x3a
 1042 0108 0B       		.uleb128 0xb
 1043 0109 3B       		.uleb128 0x3b
 1044 010a 05       		.uleb128 0x5
 1045 010b 27       		.uleb128 0x27
 1046 010c 19       		.uleb128 0x19
 1047 010d 11       		.uleb128 0x11
 1048 010e 01       		.uleb128 0x1
 1049 010f 12       		.uleb128 0x12
 1050 0110 06       		.uleb128 0x6
 1051 0111 40       		.uleb128 0x40
 1052 0112 18       		.uleb128 0x18
 1053 0113 9742     		.uleb128 0x2117
 1054 0115 19       		.uleb128 0x19
 1055 0116 00       		.byte	0
 1056 0117 00       		.byte	0
 1057 0118 12       		.uleb128 0x12
 1058 0119 2E       		.uleb128 0x2e
 1059 011a 00       		.byte	0
 1060 011b 3F       		.uleb128 0x3f
ARM GAS  C:\Users\dmarsch\AppData\Local\Temp\ccviHmsi.s 			page 27


 1061 011c 19       		.uleb128 0x19
 1062 011d 03       		.uleb128 0x3
 1063 011e 0E       		.uleb128 0xe
 1064 011f 3A       		.uleb128 0x3a
 1065 0120 0B       		.uleb128 0xb
 1066 0121 3B       		.uleb128 0x3b
 1067 0122 05       		.uleb128 0x5
 1068 0123 27       		.uleb128 0x27
 1069 0124 19       		.uleb128 0x19
 1070 0125 49       		.uleb128 0x49
 1071 0126 13       		.uleb128 0x13
 1072 0127 11       		.uleb128 0x11
 1073 0128 01       		.uleb128 0x1
 1074 0129 12       		.uleb128 0x12
 1075 012a 06       		.uleb128 0x6
 1076 012b 40       		.uleb128 0x40
 1077 012c 18       		.uleb128 0x18
 1078 012d 9742     		.uleb128 0x2117
 1079 012f 19       		.uleb128 0x19
 1080 0130 00       		.byte	0
 1081 0131 00       		.byte	0
 1082 0132 13       		.uleb128 0x13
 1083 0133 898201   		.uleb128 0x4109
 1084 0136 01       		.byte	0x1
 1085 0137 11       		.uleb128 0x11
 1086 0138 01       		.uleb128 0x1
 1087 0139 31       		.uleb128 0x31
 1088 013a 13       		.uleb128 0x13
 1089 013b 01       		.uleb128 0x1
 1090 013c 13       		.uleb128 0x13
 1091 013d 00       		.byte	0
 1092 013e 00       		.byte	0
 1093 013f 14       		.uleb128 0x14
 1094 0140 8A8201   		.uleb128 0x410a
 1095 0143 00       		.byte	0
 1096 0144 02       		.uleb128 0x2
 1097 0145 18       		.uleb128 0x18
 1098 0146 9142     		.uleb128 0x2111
 1099 0148 18       		.uleb128 0x18
 1100 0149 00       		.byte	0
 1101 014a 00       		.byte	0
 1102 014b 15       		.uleb128 0x15
 1103 014c 05       		.uleb128 0x5
 1104 014d 00       		.byte	0
 1105 014e 03       		.uleb128 0x3
 1106 014f 0E       		.uleb128 0xe
 1107 0150 3A       		.uleb128 0x3a
 1108 0151 0B       		.uleb128 0xb
 1109 0152 3B       		.uleb128 0x3b
 1110 0153 0B       		.uleb128 0xb
 1111 0154 49       		.uleb128 0x49
 1112 0155 13       		.uleb128 0x13
 1113 0156 02       		.uleb128 0x2
 1114 0157 17       		.uleb128 0x17
 1115 0158 00       		.byte	0
 1116 0159 00       		.byte	0
 1117 015a 16       		.uleb128 0x16
ARM GAS  C:\Users\dmarsch\AppData\Local\Temp\ccviHmsi.s 			page 28


 1118 015b 34       		.uleb128 0x34
 1119 015c 00       		.byte	0
 1120 015d 03       		.uleb128 0x3
 1121 015e 0E       		.uleb128 0xe
 1122 015f 3A       		.uleb128 0x3a
 1123 0160 0B       		.uleb128 0xb
 1124 0161 3B       		.uleb128 0x3b
 1125 0162 0B       		.uleb128 0xb
 1126 0163 49       		.uleb128 0x49
 1127 0164 13       		.uleb128 0x13
 1128 0165 3F       		.uleb128 0x3f
 1129 0166 19       		.uleb128 0x19
 1130 0167 02       		.uleb128 0x2
 1131 0168 18       		.uleb128 0x18
 1132 0169 00       		.byte	0
 1133 016a 00       		.byte	0
 1134 016b 17       		.uleb128 0x17
 1135 016c 2E       		.uleb128 0x2e
 1136 016d 00       		.byte	0
 1137 016e 3F       		.uleb128 0x3f
 1138 016f 19       		.uleb128 0x19
 1139 0170 3C       		.uleb128 0x3c
 1140 0171 19       		.uleb128 0x19
 1141 0172 6E       		.uleb128 0x6e
 1142 0173 0E       		.uleb128 0xe
 1143 0174 03       		.uleb128 0x3
 1144 0175 0E       		.uleb128 0xe
 1145 0176 3A       		.uleb128 0x3a
 1146 0177 0B       		.uleb128 0xb
 1147 0178 3B       		.uleb128 0x3b
 1148 0179 0B       		.uleb128 0xb
 1149 017a 00       		.byte	0
 1150 017b 00       		.byte	0
 1151 017c 00       		.byte	0
 1152              		.section	.debug_loc,"",%progbits
 1153              	.Ldebug_loc0:
 1154              	.LLST0:
 1155 0000 00000000 		.4byte	.LVL5
 1156 0004 02000000 		.4byte	.LVL6
 1157 0008 0100     		.2byte	0x1
 1158 000a 50       		.byte	0x50
 1159 000b 02000000 		.4byte	.LVL6
 1160 000f 10000000 		.4byte	.LFE6
 1161 0013 0400     		.2byte	0x4
 1162 0015 F3       		.byte	0xf3
 1163 0016 01       		.uleb128 0x1
 1164 0017 50       		.byte	0x50
 1165 0018 9F       		.byte	0x9f
 1166 0019 00000000 		.4byte	0
 1167 001d 00000000 		.4byte	0
 1168              	.LLST1:
 1169 0021 04000000 		.4byte	.LVL7
 1170 0025 06000000 		.4byte	.LVL8
 1171 0029 0500     		.2byte	0x5
 1172 002b 70       		.byte	0x70
 1173 002c 00       		.sleb128 0
 1174 002d 35       		.byte	0x35
ARM GAS  C:\Users\dmarsch\AppData\Local\Temp\ccviHmsi.s 			page 29


 1175 002e 25       		.byte	0x25
 1176 002f 9F       		.byte	0x9f
 1177 0030 00000000 		.4byte	0
 1178 0034 00000000 		.4byte	0
 1179              	.LLST2:
 1180 0038 00000000 		.4byte	.LVL13
 1181 003c 07000000 		.4byte	.LVL14-1
 1182 0040 0100     		.2byte	0x1
 1183 0042 50       		.byte	0x50
 1184 0043 07000000 		.4byte	.LVL14-1
 1185 0047 1A000000 		.4byte	.LFE1
 1186 004b 0100     		.2byte	0x1
 1187 004d 54       		.byte	0x54
 1188 004e 00000000 		.4byte	0
 1189 0052 00000000 		.4byte	0
 1190              		.section	.debug_aranges,"",%progbits
 1191 0000 7C000000 		.4byte	0x7c
 1192 0004 0200     		.2byte	0x2
 1193 0006 00000000 		.4byte	.Ldebug_info0
 1194 000a 04       		.byte	0x4
 1195 000b 00       		.byte	0
 1196 000c 0000     		.2byte	0
 1197 000e 0000     		.2byte	0
 1198 0010 00000000 		.4byte	.LFB3
 1199 0014 24000000 		.4byte	.LFE3-.LFB3
 1200 0018 00000000 		.4byte	.LFB4
 1201 001c 0C000000 		.4byte	.LFE4-.LFB4
 1202 0020 00000000 		.4byte	.LFB5
 1203 0024 0C000000 		.4byte	.LFE5-.LFB5
 1204 0028 00000000 		.4byte	.LFB6
 1205 002c 10000000 		.4byte	.LFE6-.LFB6
 1206 0030 00000000 		.4byte	.LFB7
 1207 0034 0C000000 		.4byte	.LFE7-.LFB7
 1208 0038 00000000 		.4byte	.LFB8
 1209 003c 0C000000 		.4byte	.LFE8-.LFB8
 1210 0040 00000000 		.4byte	.LFB9
 1211 0044 18000000 		.4byte	.LFE9-.LFB9
 1212 0048 00000000 		.4byte	.LFB10
 1213 004c 0C000000 		.4byte	.LFE10-.LFB10
 1214 0050 00000000 		.4byte	.LFB0
 1215 0054 1C000000 		.4byte	.LFE0-.LFB0
 1216 0058 00000000 		.4byte	.LFB1
 1217 005c 1A000000 		.4byte	.LFE1-.LFB1
 1218 0060 00000000 		.4byte	.LFB2
 1219 0064 14000000 		.4byte	.LFE2-.LFB2
 1220 0068 00000000 		.4byte	.LFB11
 1221 006c 0C000000 		.4byte	.LFE11-.LFB11
 1222 0070 00000000 		.4byte	.LFB12
 1223 0074 0C000000 		.4byte	.LFE12-.LFB12
 1224 0078 00000000 		.4byte	0
 1225 007c 00000000 		.4byte	0
 1226              		.section	.debug_ranges,"",%progbits
 1227              	.Ldebug_ranges0:
 1228 0000 00000000 		.4byte	.LFB3
 1229 0004 24000000 		.4byte	.LFE3
 1230 0008 00000000 		.4byte	.LFB4
 1231 000c 0C000000 		.4byte	.LFE4
ARM GAS  C:\Users\dmarsch\AppData\Local\Temp\ccviHmsi.s 			page 30


 1232 0010 00000000 		.4byte	.LFB5
 1233 0014 0C000000 		.4byte	.LFE5
 1234 0018 00000000 		.4byte	.LFB6
 1235 001c 10000000 		.4byte	.LFE6
 1236 0020 00000000 		.4byte	.LFB7
 1237 0024 0C000000 		.4byte	.LFE7
 1238 0028 00000000 		.4byte	.LFB8
 1239 002c 0C000000 		.4byte	.LFE8
 1240 0030 00000000 		.4byte	.LFB9
 1241 0034 18000000 		.4byte	.LFE9
 1242 0038 00000000 		.4byte	.LFB10
 1243 003c 0C000000 		.4byte	.LFE10
 1244 0040 00000000 		.4byte	.LFB0
 1245 0044 1C000000 		.4byte	.LFE0
 1246 0048 00000000 		.4byte	.LFB1
 1247 004c 1A000000 		.4byte	.LFE1
 1248 0050 00000000 		.4byte	.LFB2
 1249 0054 14000000 		.4byte	.LFE2
 1250 0058 00000000 		.4byte	.LFB11
 1251 005c 0C000000 		.4byte	.LFE11
 1252 0060 00000000 		.4byte	.LFB12
 1253 0064 0C000000 		.4byte	.LFE12
 1254 0068 00000000 		.4byte	0
 1255 006c 00000000 		.4byte	0
 1256              		.section	.debug_line,"",%progbits
 1257              	.Ldebug_line0:
 1258 0000 48010000 		.section	.debug_str,"MS",%progbits,1
 1258      02005100 
 1258      00000201 
 1258      FB0E0D00 
 1258      01010101 
 1259              	.LASF17:
 1260 0000 72656733 		.ascii	"reg32\000"
 1260      3200
 1261              	.LASF20:
 1262 0006 434C525F 		.ascii	"CLR_STR_ISR_SetVector\000"
 1262      5354525F 
 1262      4953525F 
 1262      53657456 
 1262      6563746F 
 1263              	.LASF27:
 1264 001c 434C525F 		.ascii	"CLR_STR_ISR_Enable\000"
 1264      5354525F 
 1264      4953525F 
 1264      456E6162 
 1264      6C6500
 1265              	.LASF35:
 1266 002f 76616C75 		.ascii	"value\000"
 1266      6500
 1267              	.LASF26:
 1268 0035 434C525F 		.ascii	"CLR_STR_ISR_GetPriority\000"
 1268      5354525F 
 1268      4953525F 
 1268      47657450 
 1268      72696F72 
 1269              	.LASF29:
 1270 004d 434C525F 		.ascii	"CLR_STR_ISR_Start\000"
ARM GAS  C:\Users\dmarsch\AppData\Local\Temp\ccviHmsi.s 			page 31


 1270      5354525F 
 1270      4953525F 
 1270      53746172 
 1270      7400
 1271              	.LASF6:
 1272 005f 73686F72 		.ascii	"short unsigned int\000"
 1272      7420756E 
 1272      7369676E 
 1272      65642069 
 1272      6E7400
 1273              	.LASF32:
 1274 0072 434C525F 		.ascii	"CLR_STR_ISR_SetPending\000"
 1274      5354525F 
 1274      4953525F 
 1274      53657450 
 1274      656E6469 
 1275              	.LASF41:
 1276 0089 434C525F 		.ascii	"CLR_STR_ISR_GetState\000"
 1276      5354525F 
 1276      4953525F 
 1276      47657453 
 1276      74617465 
 1277              	.LASF14:
 1278 009e 666C6F61 		.ascii	"float\000"
 1278      7400
 1279              	.LASF4:
 1280 00a4 756E7369 		.ascii	"unsigned char\000"
 1280      676E6564 
 1280      20636861 
 1280      7200
 1281              	.LASF38:
 1282 00b2 474E5520 		.ascii	"GNU C11 5.4.1 20160609 (release) [ARM/embedded-5-br"
 1282      43313120 
 1282      352E342E 
 1282      31203230 
 1282      31363036 
 1283 00e5 616E6368 		.ascii	"anch revision 237715] -mcpu=cortex-m3 -mthumb -g -O"
 1283      20726576 
 1283      6973696F 
 1283      6E203233 
 1283      37373135 
 1284 0118 67202D66 		.ascii	"g -ffunction-sections -ffat-lto-objects\000"
 1284      66756E63 
 1284      74696F6E 
 1284      2D736563 
 1284      74696F6E 
 1285              	.LASF16:
 1286 0140 72656738 		.ascii	"reg8\000"
 1286      00
 1287              	.LASF37:
 1288 0145 5357315F 		.ascii	"SW1_ClearInterrupt\000"
 1288      436C6561 
 1288      72496E74 
 1288      65727275 
 1288      707400
 1289              	.LASF33:
 1290 0158 434C525F 		.ascii	"CLR_STR_ISR_ClearPending\000"
ARM GAS  C:\Users\dmarsch\AppData\Local\Temp\ccviHmsi.s 			page 32


 1290      5354525F 
 1290      4953525F 
 1290      436C6561 
 1290      7250656E 
 1291              	.LASF12:
 1292 0171 75696E74 		.ascii	"uint8\000"
 1292      3800
 1293              	.LASF22:
 1294 0177 434C525F 		.ascii	"CLR_STR_ISR_SetPriority\000"
 1294      5354525F 
 1294      4953525F 
 1294      53657450 
 1294      72696F72 
 1295              	.LASF24:
 1296 018f 7072696F 		.ascii	"priority\000"
 1296      72697479 
 1296      00
 1297              	.LASF25:
 1298 0198 434C525F 		.ascii	"CLR_STR_ISR_GetVector\000"
 1298      5354525F 
 1298      4953525F 
 1298      47657456 
 1298      6563746F 
 1299              	.LASF19:
 1300 01ae 434C525F 		.ascii	"CLR_STR_ISR_Interrupt\000"
 1300      5354525F 
 1300      4953525F 
 1300      496E7465 
 1300      72727570 
 1301              	.LASF15:
 1302 01c4 646F7562 		.ascii	"double\000"
 1302      6C6500
 1303              	.LASF40:
 1304 01cb 433A5C55 		.ascii	"C:\\Users\\dmarsch\\Documents\\lab5\\Lab5_UART\\Lab"
 1304      73657273 
 1304      5C646D61 
 1304      72736368 
 1304      5C446F63 
 1305 01f8 355F5541 		.ascii	"5_UART.cydsn\000"
 1305      52542E63 
 1305      7964736E 
 1305      00
 1306              	.LASF13:
 1307 0205 75696E74 		.ascii	"uint32\000"
 1307      333200
 1308              	.LASF34:
 1309 020c 666C6167 		.ascii	"flag\000"
 1309      00
 1310              	.LASF8:
 1311 0211 6C6F6E67 		.ascii	"long unsigned int\000"
 1311      20756E73 
 1311      69676E65 
 1311      6420696E 
 1311      7400
 1312              	.LASF0:
 1313 0223 756E7369 		.ascii	"unsigned int\000"
 1313      676E6564 
ARM GAS  C:\Users\dmarsch\AppData\Local\Temp\ccviHmsi.s 			page 33


 1313      20696E74 
 1313      00
 1314              	.LASF31:
 1315 0230 434C525F 		.ascii	"CLR_STR_ISR_Stop\000"
 1315      5354525F 
 1315      4953525F 
 1315      53746F70 
 1315      00
 1316              	.LASF23:
 1317 0241 61646472 		.ascii	"address\000"
 1317      65737300 
 1318              	.LASF9:
 1319 0249 6C6F6E67 		.ascii	"long long unsigned int\000"
 1319      206C6F6E 
 1319      6720756E 
 1319      7369676E 
 1319      65642069 
 1320              	.LASF18:
 1321 0260 63796973 		.ascii	"cyisraddress\000"
 1321      72616464 
 1321      72657373 
 1321      00
 1322              	.LASF36:
 1323 026d 5357315F 		.ascii	"SW1_Read\000"
 1323      52656164 
 1323      00
 1324              	.LASF10:
 1325 0276 73697A65 		.ascii	"sizetype\000"
 1325      74797065 
 1325      00
 1326              	.LASF30:
 1327 027f 434C525F 		.ascii	"CLR_STR_ISR_StartEx\000"
 1327      5354525F 
 1327      4953525F 
 1327      53746172 
 1327      74457800 
 1328              	.LASF1:
 1329 0293 6C6F6E67 		.ascii	"long long int\000"
 1329      206C6F6E 
 1329      6720696E 
 1329      7400
 1330              	.LASF11:
 1331 02a1 63686172 		.ascii	"char\000"
 1331      00
 1332              	.LASF21:
 1333 02a6 72616D56 		.ascii	"ramVectorTable\000"
 1333      6563746F 
 1333      72546162 
 1333      6C6500
 1334              	.LASF5:
 1335 02b5 73686F72 		.ascii	"short int\000"
 1335      7420696E 
 1335      7400
 1336              	.LASF39:
 1337 02bf 47656E65 		.ascii	"Generated_Source\\PSoC5\\CLR_STR_ISR.c\000"
 1337      72617465 
 1337      645F536F 
ARM GAS  C:\Users\dmarsch\AppData\Local\Temp\ccviHmsi.s 			page 34


 1337      75726365 
 1337      5C50536F 
 1338              	.LASF28:
 1339 02e4 434C525F 		.ascii	"CLR_STR_ISR_Disable\000"
 1339      5354525F 
 1339      4953525F 
 1339      44697361 
 1339      626C6500 
 1340              	.LASF7:
 1341 02f8 6C6F6E67 		.ascii	"long int\000"
 1341      20696E74 
 1341      00
 1342              	.LASF2:
 1343 0301 6C6F6E67 		.ascii	"long double\000"
 1343      20646F75 
 1343      626C6500 
 1344              	.LASF3:
 1345 030d 7369676E 		.ascii	"signed char\000"
 1345      65642063 
 1345      68617200 
 1346              		.ident	"GCC: (GNU Tools for ARM Embedded Processors) 5.4.1 20160609 (release) [ARM/embedded-5-bran
